EESchema Schematic File Version 4
LIBS:psc-cache
EELAYER 30 0
EELAYER END
$Descr A3 11693 16535 portrait
encoding utf-8
Sheet 1 1
Title "Programmable Synth Controller"
Date "2019-09-05"
Rev "1"
Comp "doug@lon.dev"
Comment1 ""
Comment2 ""
Comment3 ""
Comment4 ""
$EndDescr
$Comp
L Analog_DAC:MCP4728 U3
U 1 1 5C2E903E
P 6900 2700
F 0 "U3" H 6750 2750 50  0000 C CNN
F 1 "MCP4728" H 6900 2650 50  0000 C CNN
F 2 "Package_DIP:DIP-10_W7.62mm_Socket" H 6900 2100 50  0001 C CNN
F 3 "http://ww1.microchip.com/downloads/en/DeviceDoc/22187E.pdf" H 6900 2950 50  0001 C CNN
	1    6900 2700
	1    0    0    -1  
$EndComp
$Comp
L Interface_Expansion:MCP23017_SP U4
U 1 1 5C2E92F2
P 6900 4900
F 0 "U4" H 6900 4900 50  0000 C CNN
F 1 "MCP23017_SP" H 6800 4500 50  0000 C CNN
F 2 "Package_DIP:DIP-28_W7.62mm_Socket" H 7100 3900 50  0001 L CNN
F 3 "http://ww1.microchip.com/downloads/en/DeviceDoc/20001952C.pdf" H 7100 3800 50  0001 L CNN
	1    6900 4900
	1    0    0    -1  
$EndComp
$Comp
L 8bc:AY-3-8910 U6
U 1 1 5C2E81A6
P 6950 10900
F 0 "U6" H 6950 10900 59  0000 C CNN
F 1 "AY-3-8910" H 6950 10750 42  0000 C CNN
F 2 "Package_DIP:DIP-40_W15.24mm_Socket" H 6950 10900 50  0001 C CNN
F 3 "" H 6950 10900 50  0001 C CNN
	1    6950 10900
	1    0    0    -1  
$EndComp
$Comp
L MCU_Module:Arduino_Nano_v3.x U2
U 1 1 5C2E82C6
P 3400 10400
F 0 "U2" H 3400 10400 50  0000 C CNN
F 1 "Arduino_Nano_v3.x" V 3250 10350 50  0000 C CNN
F 2 "Module:Arduino_Nano" H 3550 9450 50  0001 L CNN
F 3 "http://www.mouser.com/pdfdocs/Gravitech_Arduino_Nano3_0.pdf" H 3400 9400 50  0001 C CNN
	1    3400 10400
	-1   0    0    -1  
$EndComp
Wire Wire Line
	7650 9600 7800 9600
Wire Wire Line
	7650 9700 7950 9700
Wire Wire Line
	6900 3100 6900 3200
Wire Wire Line
	6900 6000 6900 6100
Wire Wire Line
	6900 3700 6900 3750
Wire Wire Line
	6900 2300 6900 2400
$Comp
L power:GND #PWR06
U 1 1 5C2E9CEC
P 2650 6200
F 0 "#PWR06" H 2650 5950 50  0001 C CNN
F 1 "GND" H 2500 6150 50  0000 C CNN
F 2 "" H 2650 6200 50  0001 C CNN
F 3 "" H 2650 6200 50  0001 C CNN
	1    2650 6200
	1    0    0    -1  
$EndComp
$Comp
L power:GND #PWR08
U 1 1 5C2EA6E5
P 3300 11500
F 0 "#PWR08" H 3300 11250 50  0001 C CNN
F 1 "GND" H 3305 11327 50  0000 C CNN
F 2 "" H 3300 11500 50  0001 C CNN
F 3 "" H 3300 11500 50  0001 C CNN
	1    3300 11500
	1    0    0    -1  
$EndComp
$Comp
L power:+5V #PWR05
U 1 1 5C2EBC47
P 2650 6550
F 0 "#PWR05" H 2650 6400 50  0001 C CNN
F 1 "+5V" H 2800 6600 50  0000 C CNN
F 2 "" H 2650 6550 50  0001 C CNN
F 3 "" H 2650 6550 50  0001 C CNN
	1    2650 6550
	-1   0    0    -1  
$EndComp
$Comp
L power:GND #PWR010
U 1 1 5C2ECC5D
P 6100 5800
F 0 "#PWR010" H 6100 5550 50  0001 C CNN
F 1 "GND" H 6105 5627 50  0000 C CNN
F 2 "" H 6100 5800 50  0001 C CNN
F 3 "" H 6100 5800 50  0001 C CNN
	1    6100 5800
	1    0    0    -1  
$EndComp
Wire Wire Line
	6100 5800 6100 5700
Wire Wire Line
	6100 5500 6200 5500
Wire Wire Line
	6200 5600 6100 5600
Connection ~ 6100 5600
Wire Wire Line
	6100 5600 6100 5500
Wire Wire Line
	6100 5700 6200 5700
Connection ~ 6100 5700
Wire Wire Line
	6100 5700 6100 5600
$Comp
L Device:R R3
U 1 1 5C329FE6
P 8000 4100
F 0 "R3" V 8050 3950 50  0000 C CNN
F 1 "1k" V 8050 4250 50  0000 C CNN
F 2 "Resistor_THT:R_Axial_DIN0204_L3.6mm_D1.6mm_P2.54mm_Vertical" V 7930 4100 50  0001 C CNN
F 3 "~" H 8000 4100 50  0001 C CNN
	1    8000 4100
	0    1    1    0   
$EndComp
$Comp
L psc:TFT1.8_ST7735S U5
U 1 1 5C342452
P 6400 8000
F 0 "U5" H 6800 8550 50  0000 L CNN
F 1 "TFT1.8_ST7735S" H 6800 8400 50  0000 L CNN
F 2 "Connector_PinHeader_2.54mm:PinHeader_1x08_P2.54mm_Vertical" H 6700 8950 50  0001 C CNN
F 3 "" H 6700 8950 50  0001 C CNN
	1    6400 8000
	1    0    0    -1  
$EndComp
Wire Wire Line
	6000 7200 6300 7200
$Comp
L power:GND #PWR013
U 1 1 5C34A090
P 6550 6850
F 0 "#PWR013" H 6550 6600 50  0001 C CNN
F 1 "GND" H 6555 6677 50  0000 C CNN
F 2 "" H 6550 6850 50  0001 C CNN
F 3 "" H 6550 6850 50  0001 C CNN
	1    6550 6850
	1    0    0    -1  
$EndComp
Wire Wire Line
	6250 7300 6250 6800
Wire Wire Line
	6300 7800 6000 7800
NoConn ~ 6300 7900
Wire Wire Line
	6300 2700 5900 2700
Wire Wire Line
	6300 2600 5900 2600
$Comp
L Connector:Conn_01x04_Male J2
U 1 1 5C3C51C2
P 8850 2700
F 0 "J2" H 8823 2673 50  0000 R CNN
F 1 "DAC OUT" H 8823 2582 50  0000 R CNN
F 2 "Connector_PinHeader_2.54mm:PinHeader_1x04_P2.54mm_Vertical" H 8850 2700 50  0001 C CNN
F 3 "~" H 8850 2700 50  0001 C CNN
	1    8850 2700
	-1   0    0    -1  
$EndComp
Wire Wire Line
	7500 2600 8650 2600
Wire Wire Line
	7500 2700 8650 2700
Wire Wire Line
	7500 2800 8650 2800
Wire Wire Line
	7500 2900 8650 2900
$Comp
L Connector:Conn_01x04_Male J5
U 1 1 5C3E1477
P 8550 5100
F 0 "J5" H 8523 5073 50  0000 R CNN
F 1 "GATES" H 8523 4982 50  0000 R CNN
F 2 "Connector_PinHeader_2.54mm:PinHeader_1x04_P2.54mm_Vertical" H 8550 5100 50  0001 C CNN
F 3 "~" H 8550 5100 50  0001 C CNN
	1    8550 5100
	-1   0    0    -1  
$EndComp
$Comp
L Connector:Conn_01x04_Male J6
U 1 1 5C3E14EF
P 8550 5500
F 0 "J6" H 8522 5473 50  0000 R CNN
F 1 "TRIGGERS" H 8522 5382 50  0000 R CNN
F 2 "Connector_PinHeader_2.54mm:PinHeader_1x04_P2.54mm_Vertical" H 8550 5500 50  0001 C CNN
F 3 "~" H 8550 5500 50  0001 C CNN
	1    8550 5500
	-1   0    0    -1  
$EndComp
Wire Wire Line
	7600 5000 8350 5000
Wire Wire Line
	7600 5100 8350 5100
Wire Wire Line
	7600 5200 8350 5200
Wire Wire Line
	7600 5300 8350 5300
Wire Wire Line
	7600 5400 8350 5400
Wire Wire Line
	7600 5500 8350 5500
Wire Wire Line
	7600 5600 8350 5600
Wire Wire Line
	7600 5700 8350 5700
Wire Wire Line
	6000 5000 6200 5000
NoConn ~ 6200 4800
NoConn ~ 6200 4700
NoConn ~ 7600 4700
NoConn ~ 7600 4600
NoConn ~ 7600 4500
$Comp
L Connector:Conn_01x03_Male J9
U 1 1 5C2FE7B5
P 8650 12000
F 0 "J9" H 8622 12023 50  0000 R CNN
F 1 "PSG OUT" H 8622 11932 50  0000 R CNN
F 2 "Connector_PinHeader_2.54mm:PinHeader_1x03_P2.54mm_Vertical" H 8650 12000 50  0001 C CNN
F 3 "~" H 8650 12000 50  0001 C CNN
	1    8650 12000
	-1   0    0    -1  
$EndComp
Wire Wire Line
	7650 12100 8450 12100
Wire Wire Line
	7650 12000 8450 12000
Wire Wire Line
	7650 11900 8450 11900
Wire Wire Line
	7650 10200 7800 10200
Wire Wire Line
	7800 9600 7800 10200
Wire Wire Line
	7650 10700 7800 10700
Wire Wire Line
	7800 10700 7800 10200
Connection ~ 7800 10200
Wire Wire Line
	7650 10300 7950 10300
Wire Wire Line
	7950 10300 7950 9700
Wire Wire Line
	7650 9900 8150 9900
Wire Wire Line
	8150 9900 8150 9050
Wire Wire Line
	8150 9050 4300 9050
Wire Wire Line
	4300 9050 4300 10900
Wire Wire Line
	4300 10900 3900 10900
Wire Wire Line
	7650 10800 8250 10800
Wire Wire Line
	2600 10500 2900 10500
Wire Wire Line
	7650 10600 8250 10600
Wire Wire Line
	2600 10400 2900 10400
NoConn ~ 6150 10600
NoConn ~ 6150 10500
NoConn ~ 6150 9700
NoConn ~ 6150 9600
NoConn ~ 7650 11600
NoConn ~ 7650 10000
NoConn ~ 3500 9400
NoConn ~ 2900 9800
NoConn ~ 2900 9900
NoConn ~ 2900 10200
NoConn ~ 2900 10600
NoConn ~ 2900 10700
NoConn ~ 2900 10800
NoConn ~ 2900 10900
NoConn ~ 2900 11000
NoConn ~ 2900 11100
NoConn ~ 3900 11100
NoConn ~ 3900 11000
Wire Wire Line
	3900 9800 4400 9800
Wire Wire Line
	3900 9900 4400 9900
$Comp
L Connector:Conn_01x04_Male J3
U 1 1 5C74CAC7
P 8850 4200
F 0 "J3" H 8822 4173 50  0000 R CNN
F 1 "RGB LED" H 8822 4082 50  0000 R CNN
F 2 "Connector_PinHeader_2.54mm:PinHeader_1x04_P2.54mm_Vertical" H 8850 4200 50  0001 C CNN
F 3 "~" H 8850 4200 50  0001 C CNN
	1    8850 4200
	-1   0    0    -1  
$EndComp
$Comp
L power:GND #PWR0101
U 1 1 5C3C83FF
P 7850 4550
F 0 "#PWR0101" H 7850 4300 50  0001 C CNN
F 1 "GND" H 7855 4377 50  0000 C CNN
F 2 "" H 7850 4550 50  0001 C CNN
F 3 "" H 7850 4550 50  0001 C CNN
	1    7850 4550
	1    0    0    -1  
$EndComp
Wire Wire Line
	7850 4550 7850 4400
$Comp
L Connector:Conn_01x03_Male J8
U 1 1 5C41E173
P 5450 10200
F 0 "J8" H 5422 10223 50  0000 R CNN
F 1 "PSG TRIG" H 5422 10132 50  0000 R CNN
F 2 "Connector_PinHeader_2.54mm:PinHeader_1x03_P2.54mm_Vertical" H 5450 10200 50  0001 C CNN
F 3 "~" H 5450 10200 50  0001 C CNN
	1    5450 10200
	1    0    0    1   
$EndComp
$Comp
L Connector:Conn_01x03_Male J7
U 1 1 5C41E203
P 5450 9900
F 0 "J7" H 5422 9923 50  0000 R CNN
F 1 "PSG GATE" H 5422 9832 50  0000 R CNN
F 2 "Connector_PinHeader_2.54mm:PinHeader_1x03_P2.54mm_Vertical" H 5450 9900 50  0001 C CNN
F 3 "~" H 5450 9900 50  0001 C CNN
	1    5450 9900
	1    0    0    1   
$EndComp
Wire Wire Line
	5650 10300 6150 10300
Wire Wire Line
	5650 10200 6150 10200
Wire Wire Line
	6150 10100 5650 10100
Wire Wire Line
	5650 10000 6150 10000
Wire Wire Line
	6150 9900 5650 9900
Wire Wire Line
	5650 9800 6150 9800
NoConn ~ 6150 10700
NoConn ~ 6150 10800
NoConn ~ 6150 10900
NoConn ~ 6150 11000
NoConn ~ 6150 11100
NoConn ~ 6150 11200
NoConn ~ 7600 4400
NoConn ~ 3900 10800
$Comp
L Connector:Conn_01x01_Male J4
U 1 1 5C407D2A
P 8550 4800
F 0 "J4" H 8522 4773 50  0000 R CNN
F 1 "MASTER TRIG" H 8522 4682 50  0000 R CNN
F 2 "Connector_PinHeader_2.54mm:PinHeader_1x01_P2.54mm_Vertical" H 8550 4800 50  0001 C CNN
F 3 "~" H 8550 4800 50  0001 C CNN
	1    8550 4800
	-1   0    0    -1  
$EndComp
Wire Wire Line
	7600 4800 8350 4800
$Comp
L Device:R R4
U 1 1 5C3BF7F0
P 8000 4200
F 0 "R4" V 8050 4050 50  0000 C CNN
F 1 "1k" V 8050 4350 50  0000 C CNN
F 2 "Resistor_THT:R_Axial_DIN0204_L3.6mm_D1.6mm_P2.54mm_Vertical" V 7930 4200 50  0001 C CNN
F 3 "~" H 8000 4200 50  0001 C CNN
	1    8000 4200
	0    1    1    0   
$EndComp
$Comp
L Device:R R5
U 1 1 5C3BF82A
P 8000 4300
F 0 "R5" V 8050 4150 50  0000 C CNN
F 1 "1k" V 8050 4450 50  0000 C CNN
F 2 "Resistor_THT:R_Axial_DIN0204_L3.6mm_D1.6mm_P2.54mm_Vertical" V 7930 4300 50  0001 C CNN
F 3 "~" H 8000 4300 50  0001 C CNN
	1    8000 4300
	0    1    1    0   
$EndComp
Wire Wire Line
	7850 4400 8650 4400
Wire Wire Line
	8650 4300 8150 4300
Wire Wire Line
	8150 4200 8650 4200
Wire Wire Line
	8650 4100 8150 4100
Wire Wire Line
	7850 4100 7600 4100
Wire Wire Line
	7600 4200 7850 4200
Wire Wire Line
	7850 4300 7600 4300
Text Label 6150 7400 0    50   ~ 0
DIN
Text Label 6150 7500 0    50   ~ 0
CLK
Text Label 6150 7600 0    50   ~ 0
CS
Text Label 6150 7700 0    50   ~ 0
DC
$Comp
L psc:ESP32-DEVKITC-32D U1
U 1 1 5D715A0E
P 3700 5700
F 0 "U1" H 3700 6957 50  0000 C CNN
F 1 "ESP32-DEVKITC-32D" H 3700 6866 50  0000 C CNN
F 2 "psc:MODULE_ESP32-DEVKITC-32D" H 3700 6775 50  0000 C CNN
F 3 "Espressif Systems" H 3700 5700 50  0001 L BNN
F 4 "None" H 3700 5700 50  0001 L BNN "Field4"
F 5 "None" H 3700 5700 50  0001 L BNN "Field5"
F 6 "ESP32-DEVKITC-32D" H 3700 5700 50  0001 L BNN "Field6"
F 7 "EVAL BOARD FOR ESP-WROOM-32" H 3700 5700 50  0001 L BNN "Field7"
F 8 "Unavailable" H 3700 5700 50  0001 L BNN "Field8"
	1    3700 5700
	1    0    0    -1  
$EndComp
Wire Wire Line
	2900 6100 2650 6100
Wire Wire Line
	2500 5400 2900 5400
Wire Wire Line
	2500 5500 2900 5500
Wire Wire Line
	5000 5300 4500 5300
Wire Wire Line
	5700 5600 4500 5600
Wire Wire Line
	5700 6000 4500 6000
NoConn ~ 4500 6600
NoConn ~ 4500 6500
NoConn ~ 4500 6400
NoConn ~ 4500 6300
NoConn ~ 4500 6200
NoConn ~ 4500 6100
NoConn ~ 4500 5800
NoConn ~ 4500 5500
NoConn ~ 4500 5200
NoConn ~ 4500 5100
NoConn ~ 2900 6500
NoConn ~ 2900 6400
NoConn ~ 2900 6300
NoConn ~ 2900 6200
NoConn ~ 2900 6000
NoConn ~ 2900 5900
NoConn ~ 2900 5800
NoConn ~ 2900 5700
NoConn ~ 2900 5600
NoConn ~ 2900 5300
NoConn ~ 2900 5200
NoConn ~ 2900 5100
NoConn ~ 2900 5000
NoConn ~ 2900 4900
$Comp
L Device:R R1
U 1 1 5D9E8339
P 5000 4450
F 0 "R1" H 4930 4496 50  0000 R CNN
F 1 "4.7k" H 4930 4405 50  0000 R CNN
F 2 "Resistor_THT:R_Axial_DIN0204_L3.6mm_D1.6mm_P2.54mm_Vertical" V 4930 4450 50  0001 C CNN
F 3 "~" H 5000 4450 50  0001 C CNN
	1    5000 4450
	1    0    0    -1  
$EndComp
$Comp
L Device:R R2
U 1 1 5D9E8C41
P 5200 4450
F 0 "R2" H 5270 4496 50  0000 L CNN
F 1 "4.7k" H 5270 4405 50  0000 L CNN
F 2 "Resistor_THT:R_Axial_DIN0204_L3.6mm_D1.6mm_P2.54mm_Vertical" V 5130 4450 50  0001 C CNN
F 3 "~" H 5200 4450 50  0001 C CNN
	1    5200 4450
	1    0    0    -1  
$EndComp
Wire Wire Line
	2650 6600 2650 6550
Wire Wire Line
	6000 7800 6000 7200
Text Label 6050 4100 0    50   ~ 0
SDA
Text Label 6050 4200 0    50   ~ 0
SCL
Text Label 6050 2800 0    50   ~ 0
NLDAC
Text Label 2700 6600 0    50   ~ 0
+5V
Text Label 2700 4800 0    50   ~ 0
+3V3
Text Label 8050 11900 0    50   ~ 0
PSG_A
Text Label 8050 12000 0    50   ~ 0
PSG_B
Text Label 8050 12100 0    50   ~ 0
PSG_C
Text Label 6000 12100 0    50   ~ 0
DA0
Text Label 6000 12000 0    50   ~ 0
DA1
Text Label 6000 11900 0    50   ~ 0
DA2
Text Label 6000 11800 0    50   ~ 0
DA3
Text Label 6000 11700 0    50   ~ 0
DA4
Text Label 6000 11600 0    50   ~ 0
DA5
Text Label 6000 11500 0    50   ~ 0
DA6
Text Label 6000 11400 0    50   ~ 0
DA7
Text Label 5750 10300 0    50   ~ 0
PSG_TA
Text Label 5750 10200 0    50   ~ 0
PSG_TB
Text Label 5750 10100 0    50   ~ 0
PSG_TC
Text Label 5750 10000 0    50   ~ 0
PSG_GA
Text Label 5750 9900 0    50   ~ 0
PSG_GB
Text Label 5750 9800 0    50   ~ 0
PSG_GC
Text Label 8000 10600 0    50   ~ 0
BC1
Text Label 8000 10800 0    50   ~ 0
BDIR
Text Label 7700 5700 0    50   ~ 0
TRIG_D
Text Label 7700 5500 0    50   ~ 0
TRIG_B
Text Label 7700 5600 0    50   ~ 0
TRIG_C
Text Label 7700 5400 0    50   ~ 0
TRIG_A
Text Label 8050 4800 0    50   ~ 0
TRIG_M
Text Label 7700 5000 0    50   ~ 0
GATE_A
Text Label 7700 5100 0    50   ~ 0
GATE_B
Text Label 7700 5200 0    50   ~ 0
GATE_C
Text Label 7700 5300 0    50   ~ 0
GATE_D
Text Label 8300 4100 0    50   ~ 0
LED_R
Text Label 8300 4200 0    50   ~ 0
LED_G
Text Label 8300 4300 0    50   ~ 0
LED_B
Text Label 8300 4400 0    50   ~ 0
LED_C
Text Label 7800 2600 0    50   ~ 0
DAC_A
Text Label 7800 2700 0    50   ~ 0
DAC_B
Text Label 7800 2800 0    50   ~ 0
DAC_C
Text Label 7800 2900 0    50   ~ 0
DAC_D
Wire Wire Line
	2650 6600 2900 6600
Wire Wire Line
	2650 4800 2900 4800
$Comp
L power:GND #PWR0102
U 1 1 5D73E620
P 6900 6100
F 0 "#PWR0102" H 6900 5850 50  0001 C CNN
F 1 "GND" H 6905 5927 50  0000 C CNN
F 2 "" H 6900 6100 50  0001 C CNN
F 3 "" H 6900 6100 50  0001 C CNN
	1    6900 6100
	1    0    0    -1  
$EndComp
$Comp
L power:GND #PWR0103
U 1 1 5D73ED44
P 6900 3200
F 0 "#PWR0103" H 6900 2950 50  0001 C CNN
F 1 "GND" H 6905 3027 50  0000 C CNN
F 2 "" H 6900 3200 50  0001 C CNN
F 3 "" H 6900 3200 50  0001 C CNN
	1    6900 3200
	1    0    0    -1  
$EndComp
Wire Bus Line
	4200 11300 5850 11300
Entry Wire Line
	5950 11400 5850 11300
Entry Wire Line
	5950 12100 5850 12000
Entry Wire Line
	5950 12000 5850 11900
Entry Wire Line
	5950 11900 5850 11800
Entry Wire Line
	5950 11800 5850 11700
Entry Wire Line
	5950 11700 5850 11600
Entry Wire Line
	5950 11600 5850 11500
Entry Wire Line
	5950 11500 5850 11400
Entry Wire Line
	4100 10000 4200 10100
Entry Wire Line
	4100 10100 4200 10200
Entry Wire Line
	4100 10200 4200 10300
Entry Wire Line
	4100 10300 4200 10400
Entry Wire Line
	4100 10400 4200 10500
Entry Wire Line
	4100 10600 4200 10700
Entry Wire Line
	4100 10700 4200 10800
Entry Wire Line
	4100 10500 4200 10600
Wire Wire Line
	3900 10700 4100 10700
Wire Wire Line
	4100 10600 3900 10600
Wire Wire Line
	4100 10500 3900 10500
Wire Wire Line
	4100 10400 3900 10400
Wire Wire Line
	4100 10300 3900 10300
Wire Wire Line
	3900 10200 4100 10200
Wire Wire Line
	4100 10100 3900 10100
Wire Wire Line
	3900 10000 4100 10000
Text Label 3950 10500 0    50   ~ 0
DA7
Text Label 3950 10400 0    50   ~ 0
DA6
Text Label 3950 10300 0    50   ~ 0
DA5
Text Label 3950 10200 0    50   ~ 0
DA4
Text Label 3950 10100 0    50   ~ 0
DA3
Text Label 3950 10000 0    50   ~ 0
DA2
Text Label 3950 10700 0    50   ~ 0
DA1
Text Label 3950 10600 0    50   ~ 0
DA0
Wire Wire Line
	5950 11400 6150 11400
Wire Wire Line
	5950 11500 6150 11500
Wire Wire Line
	5950 11600 6150 11600
Wire Wire Line
	6150 11700 5950 11700
Wire Wire Line
	5950 11800 6150 11800
Wire Wire Line
	6150 11900 5950 11900
Wire Wire Line
	5950 12000 6150 12000
Wire Wire Line
	6150 12100 5950 12100
Entry Wire Line
	5800 7300 5900 7400
Wire Wire Line
	6250 6800 6550 6800
Wire Wire Line
	6550 6800 6550 6850
Wire Wire Line
	6250 7300 6300 7300
Wire Wire Line
	6300 7400 5900 7400
Wire Wire Line
	6300 7500 5900 7500
Wire Wire Line
	6300 7600 5900 7600
Wire Wire Line
	6300 7700 5900 7700
Entry Wire Line
	5800 7400 5900 7500
Entry Wire Line
	5800 7500 5900 7600
Entry Wire Line
	5800 7600 5900 7700
Text Label 4550 4900 0    50   ~ 0
DIN
Text Label 4550 5600 0    50   ~ 0
CLK
Text Label 4550 5700 0    50   ~ 0
CS
Text Label 4550 6000 0    50   ~ 0
DC
Entry Wire Line
	5700 6000 5800 6100
Entry Wire Line
	5700 5600 5800 5700
Entry Wire Line
	5700 5700 5800 5800
Wire Wire Line
	4500 5700 5700 5700
Text Label 2600 5400 0    50   ~ 0
PSG_RX
Text Label 2600 5500 0    50   ~ 0
PSG_TX
Text Label 3950 9800 0    50   ~ 0
PSG_RX
Text Label 3950 9900 0    50   ~ 0
PSG_TX
Entry Wire Line
	2400 5500 2500 5400
Entry Wire Line
	2400 5600 2500 5500
Entry Wire Line
	4400 9900 4500 9800
Entry Wire Line
	4400 9800 4500 9700
Wire Wire Line
	5000 4600 5000 5300
Text Label 4550 5300 0    50   ~ 0
SDA
Text Label 4550 5000 0    50   ~ 0
SCL
Text Label 6150 2700 0    50   ~ 0
SDA
Text Label 6150 2600 0    50   ~ 0
SCL
Wire Wire Line
	5000 5300 5400 5300
Connection ~ 5000 5300
Entry Wire Line
	5500 5100 5400 5000
Entry Wire Line
	5500 5400 5400 5300
Wire Wire Line
	6200 4100 5900 4100
Wire Wire Line
	5200 4600 5200 5000
Connection ~ 5200 5000
Wire Wire Line
	5200 5000 5400 5000
Wire Wire Line
	5900 4200 6200 4200
Entry Wire Line
	5900 2600 5800 2700
Entry Wire Line
	5900 2700 5800 2800
Entry Wire Line
	5800 4000 5900 4100
Entry Wire Line
	5800 4100 5900 4200
Wire Bus Line
	5500 4100 5800 4100
$Comp
L power:+3.3V #PWR0104
U 1 1 5DC11BBE
P 6900 2300
F 0 "#PWR0104" H 6900 2150 50  0001 C CNN
F 1 "+3.3V" H 6900 2500 50  0000 C CNN
F 2 "" H 6900 2300 50  0001 C CNN
F 3 "" H 6900 2300 50  0001 C CNN
	1    6900 2300
	1    0    0    -1  
$EndComp
$Comp
L power:+3.3V #PWR0105
U 1 1 5DC120A7
P 6900 3700
F 0 "#PWR0105" H 6900 3550 50  0001 C CNN
F 1 "+3.3V" H 6900 3850 50  0000 C CNN
F 2 "" H 6900 3700 50  0001 C CNN
F 3 "" H 6900 3700 50  0001 C CNN
	1    6900 3700
	1    0    0    -1  
$EndComp
$Comp
L power:+3.3V #PWR0106
U 1 1 5DC1225E
P 6000 7100
F 0 "#PWR0106" H 6000 6950 50  0001 C CNN
F 1 "+3.3V" H 6000 7300 50  0000 C CNN
F 2 "" H 6000 7100 50  0001 C CNN
F 3 "" H 6000 7100 50  0001 C CNN
	1    6000 7100
	1    0    0    -1  
$EndComp
Wire Wire Line
	6000 7100 6000 7200
Connection ~ 6000 7200
Wire Wire Line
	6000 3750 6900 3750
Wire Wire Line
	6000 3750 6000 5000
Connection ~ 6900 3750
Wire Wire Line
	6900 3750 6900 3800
$Comp
L power:+3.3V #PWR0107
U 1 1 5DC234AD
P 2650 4700
F 0 "#PWR0107" H 2650 4550 50  0001 C CNN
F 1 "+3.3V" H 2650 4900 50  0000 C CNN
F 2 "" H 2650 4700 50  0001 C CNN
F 3 "" H 2650 4700 50  0001 C CNN
	1    2650 4700
	1    0    0    -1  
$EndComp
$Comp
L power:+3.3V #PWR0108
U 1 1 5DC23E19
P 5100 4200
F 0 "#PWR0108" H 5100 4050 50  0001 C CNN
F 1 "+3.3V" H 5100 4400 50  0000 C CNN
F 2 "" H 5100 4200 50  0001 C CNN
F 3 "" H 5100 4200 50  0001 C CNN
	1    5100 4200
	1    0    0    -1  
$EndComp
Wire Wire Line
	5000 4300 5100 4300
Wire Wire Line
	5100 4200 5100 4300
Connection ~ 5100 4300
Wire Wire Line
	5100 4300 5200 4300
$Comp
L power:+3.3V #PWR0109
U 1 1 5DC2C7C6
P 3300 9300
F 0 "#PWR0109" H 3300 9150 50  0001 C CNN
F 1 "+3.3V" H 3450 9450 50  0000 C CNN
F 2 "" H 3300 9300 50  0001 C CNN
F 3 "" H 3300 9300 50  0001 C CNN
	1    3300 9300
	1    0    0    -1  
$EndComp
Wire Wire Line
	3300 9300 3300 9400
Wire Wire Line
	2650 4800 2650 4700
Wire Wire Line
	2650 6200 2650 6100
NoConn ~ 4500 4800
NoConn ~ 4500 5400
Text Label 4550 5900 0    50   ~ 0
NLDAC
Entry Wire Line
	5400 5900 5500 5800
Wire Wire Line
	4500 5900 5400 5900
Entry Wire Line
	5800 2900 5900 2800
Wire Wire Line
	5900 2800 6300 2800
Wire Wire Line
	4500 5000 5200 5000
Entry Wire Line
	5700 4900 5800 5000
Wire Wire Line
	4500 4900 5700 4900
$Comp
L power:+5V #PWR0110
U 1 1 5DCEF9DA
P 3200 9300
F 0 "#PWR0110" H 3200 9150 50  0001 C CNN
F 1 "+5V" H 3250 9450 50  0000 L CNN
F 2 "" H 3200 9300 50  0001 C CNN
F 3 "" H 3200 9300 50  0001 C CNN
	1    3200 9300
	-1   0    0    -1  
$EndComp
$Comp
L power:+5V #PWR0111
U 1 1 5DCF0078
P 7800 9500
F 0 "#PWR0111" H 7800 9350 50  0001 C CNN
F 1 "+5V" H 7800 9700 50  0000 C CNN
F 2 "" H 7800 9500 50  0001 C CNN
F 3 "" H 7800 9500 50  0001 C CNN
	1    7800 9500
	-1   0    0    -1  
$EndComp
Wire Wire Line
	7800 9500 7800 9600
Connection ~ 7800 9600
Wire Wire Line
	3200 9300 3200 9400
$Comp
L power:GND #PWR0112
U 1 1 5DD1B692
P 7950 10950
F 0 "#PWR0112" H 7950 10700 50  0001 C CNN
F 1 "GND" H 7955 10777 50  0000 C CNN
F 2 "" H 7950 10950 50  0001 C CNN
F 3 "" H 7950 10950 50  0001 C CNN
	1    7950 10950
	1    0    0    -1  
$EndComp
Connection ~ 7950 10300
Wire Wire Line
	7950 10300 7950 10950
Wire Wire Line
	3300 11400 3300 11500
Wire Bus Line
	4500 7400 2400 7400
Text Label 2700 10400 0    50   ~ 0
BC1
Text Label 2700 10500 0    50   ~ 0
BDIR
Entry Wire Line
	8250 10600 8350 10500
Entry Wire Line
	8250 10800 8350 10700
Entry Wire Line
	2500 10300 2600 10400
Entry Wire Line
	2500 10400 2600 10500
Wire Bus Line
	2500 8950 8350 8950
NoConn ~ 6300 2900
NoConn ~ 3400 11400
Wire Wire Line
	2600 3100 2600 3200
Wire Wire Line
	2500 3100 2600 3100
Wire Wire Line
	2600 3000 2600 2900
Wire Wire Line
	2500 3000 2600 3000
$Comp
L power:+5V #PWR01
U 1 1 5DDE1982
P 2600 2900
F 0 "#PWR01" H 2600 2750 50  0001 C CNN
F 1 "+5V" H 2750 2950 50  0000 C CNN
F 2 "" H 2600 2900 50  0001 C CNN
F 3 "" H 2600 2900 50  0001 C CNN
	1    2600 2900
	-1   0    0    -1  
$EndComp
$Comp
L power:GND #PWR02
U 1 1 5DDE1456
P 2600 3200
F 0 "#PWR02" H 2600 2950 50  0001 C CNN
F 1 "GND" H 2450 3150 50  0000 C CNN
F 2 "" H 2600 3200 50  0001 C CNN
F 3 "" H 2600 3200 50  0001 C CNN
	1    2600 3200
	1    0    0    -1  
$EndComp
$Comp
L Connector:Conn_01x02_Male J1
U 1 1 5DDE0B12
P 2300 3000
F 0 "J1" H 2273 2973 50  0000 R CNN
F 1 "PWR IN" H 2273 2882 50  0000 R CNN
F 2 "Connector_PinHeader_2.54mm:PinHeader_1x02_P2.54mm_Vertical" H 2300 3000 50  0001 C CNN
F 3 "~" H 2300 3000 50  0001 C CNN
	1    2300 3000
	1    0    0    -1  
$EndComp
Wire Wire Line
	3600 3100 3600 3200
Wire Wire Line
	3500 3100 3600 3100
Wire Wire Line
	4000 3000 4000 2850
$Comp
L power:+5V #PWR04
U 1 1 5D7CB495
P 4000 2850
F 0 "#PWR04" H 4000 2700 50  0001 C CNN
F 1 "+5V" H 4150 2900 50  0000 C CNN
F 2 "" H 4000 2850 50  0001 C CNN
F 3 "" H 4000 2850 50  0001 C CNN
	1    4000 2850
	-1   0    0    -1  
$EndComp
$Comp
L power:GND #PWR03
U 1 1 5D7CB49B
P 3600 3200
F 0 "#PWR03" H 3600 2950 50  0001 C CNN
F 1 "GND" H 3450 3150 50  0000 C CNN
F 2 "" H 3600 3200 50  0001 C CNN
F 3 "" H 3600 3200 50  0001 C CNN
	1    3600 3200
	1    0    0    -1  
$EndComp
$Comp
L Connector:Conn_01x02_Male J10
U 1 1 5D7CB4A1
P 3300 3000
F 0 "J10" H 3273 2973 50  0000 R CNN
F 1 "PWR LED" H 3273 2882 50  0000 R CNN
F 2 "Connector_PinHeader_2.54mm:PinHeader_1x02_P2.54mm_Vertical" H 3300 3000 50  0001 C CNN
F 3 "~" H 3300 3000 50  0001 C CNN
	1    3300 3000
	1    0    0    -1  
$EndComp
$Comp
L Device:R R6
U 1 1 5D7E940F
P 3750 3000
F 0 "R6" V 3865 3000 50  0000 C CNN
F 1 "4.7k" V 3956 3000 50  0000 C CNN
F 2 "Resistor_THT:R_Axial_DIN0204_L3.6mm_D1.6mm_P7.62mm_Horizontal" V 3680 3000 50  0001 C CNN
F 3 "~" H 3750 3000 50  0001 C CNN
	1    3750 3000
	0    1    1    0   
$EndComp
Wire Wire Line
	3900 3000 4000 3000
Wire Wire Line
	3600 3000 3500 3000
Wire Bus Line
	2500 8950 2500 10400
Wire Bus Line
	8350 8950 8350 10700
Wire Bus Line
	4500 7400 4500 9800
Wire Bus Line
	2400 5500 2400 7400
Wire Bus Line
	5500 4100 5500 5800
Wire Bus Line
	5800 2700 5800 4100
Wire Bus Line
	5850 11300 5850 12000
Wire Bus Line
	5800 5000 5800 7600
Wire Bus Line
	4200 10100 4200 11300
$EndSCHEMATC
