%!PS-Adobe-3.0
%%Creator: PCBNEW
%%CreationDate: Fri Sep 13 14:51:08 2019
%%Title: /home/doug/Documents/Personal/psc/hardware/gerbers/psc-NPTH-drl_map.ps
%%Pages: 1
%%PageOrder: Ascend
%%BoundingBox: 0 0 596 842
%%DocumentMedia: A4 595 842 0 () ()
%%Orientation: Landscape
%%EndComments
%%BeginProlog
/line { newpath moveto lineto stroke } bind def
/cir0 { newpath 0 360 arc stroke } bind def
/cir1 { newpath 0 360 arc gsave fill grestore stroke } bind def
/cir2 { newpath 0 360 arc gsave fill grestore stroke } bind def
/arc0 { newpath arc stroke } bind def
/arc1 { newpath 4 index 4 index moveto arc closepath gsave fill
    grestore stroke } bind def
/arc2 { newpath 4 index 4 index moveto arc closepath gsave fill
    grestore stroke } bind def
/poly0 { stroke } bind def
/poly1 { closepath gsave fill grestore stroke } bind def
/poly2 { closepath gsave fill grestore stroke } bind def
/rect0 { rectstroke } bind def
/rect1 { rectfill } bind def
/rect2 { rectfill } bind def
/linemode0 { 0 setlinecap 0 setlinejoin 0 setlinewidth } bind def
/linemode1 { 1 setlinecap 1 setlinejoin } bind def
/dashedline { [200] 100 setdash } bind def
/solidline { [] 0 setdash } bind def
/phantomshow { moveto
    /KicadFont findfont 0.000001 scalefont setfont
    show } bind def
/textshow { gsave
    findfont exch scalefont setfont concat 1 scale 0 0 moveto show
    } bind def
/reencodefont {
  findfont dup length dict begin
  { 1 index /FID ne
    { def }
    { pop pop } ifelse
  } forall
  /Encoding ISOLatin1Encoding def
  currentdict
  end } bind def
/KicadFont /Helvetica reencodefont definefont pop
/KicadFont-Bold /Helvetica-Bold reencodefont definefont pop
/KicadFont-Oblique /Helvetica-Oblique reencodefont definefont pop
/KicadFont-BoldOblique /Helvetica-BoldOblique reencodefont definefont pop
%%EndProlog
%%Page: 1 1
%%BeginPageSetup
gsave
0.0072 0.0072 scale
linemode1
82680 0 translate 90 rotate
52.9228 setlinewidth
%%EndPageSetup
0 0 0 setrgbcolor
62.5072 setlinewidth
88468.5 38290.4 625.072 cir0
0 0 0 setrgbcolor
28461.5 38290.4 658.884 cir0
0 0 0 setrgbcolor
newpath
27211.4 37040.3 moveto
89718.6 37040.3 lineto
stroke
0 0 0 setrgbcolor
newpath
89718.6 78711.7 moveto
27211.4 78711.7 lineto
stroke
0 0 0 setrgbcolor
28461.5 77461.6 625.072 cir0
0 0 0 setrgbcolor
88468.5 77461.6 658.884 cir0
0 0 0 setrgbcolor
newpath
89718.6 37040.3 moveto
89718.6 78711.7 lineto
stroke
0 0 0 setrgbcolor
newpath
27211.4 78711.7 moveto
27211.4 37040.3 lineto
stroke
78.7399 setlinewidth
118.11 setlinewidth
0 0 0 setrgbcolor
0 0 0 setrgbcolor
newpath
28307.8 35175.5 moveto
28307.8 36356.6 lineto
28589 36356.6 lineto
28757.8 36300.3 lineto
28870.2 36187.9 lineto
28926.5 36075.4 lineto
28982.7 35850.4 lineto
28982.7 35681.7 lineto
28926.5 35456.7 lineto
28870.2 35344.2 lineto
28757.8 35231.7 lineto
28589 35175.5 lineto
28307.8 35175.5 lineto
stroke
newpath
29488.9 35175.5 moveto
29488.9 35962.9 lineto
stroke
newpath
29488.9 35737.9 moveto
29545.2 35850.4 lineto
29601.4 35906.6 lineto
29713.9 35962.9 lineto
29826.4 35962.9 lineto
stroke
newpath
30220.1 35175.5 moveto
30220.1 35962.9 lineto
stroke
newpath
30220.1 36356.6 moveto
30163.8 36300.3 lineto
30220.1 36244.1 lineto
30276.3 36300.3 lineto
30220.1 36356.6 lineto
30220.1 36244.1 lineto
stroke
newpath
30951.2 35175.5 moveto
30838.7 35231.7 lineto
30782.5 35344.2 lineto
30782.5 36356.6 lineto
stroke
newpath
31569.9 35175.5 moveto
31457.4 35231.7 lineto
31401.2 35344.2 lineto
31401.2 36356.6 lineto
stroke
newpath
32919.7 35175.5 moveto
32919.7 36356.6 lineto
33313.4 35512.9 lineto
33707.1 36356.6 lineto
33707.1 35175.5 lineto
stroke
newpath
34775.8 35175.5 moveto
34775.8 35794.2 lineto
34719.5 35906.6 lineto
34607 35962.9 lineto
34382.1 35962.9 lineto
34269.6 35906.6 lineto
stroke
newpath
34775.8 35231.7 moveto
34663.3 35175.5 lineto
34382.1 35175.5 lineto
34269.6 35231.7 lineto
34213.3 35344.2 lineto
34213.3 35456.7 lineto
34269.6 35569.2 lineto
34382.1 35625.4 lineto
34663.3 35625.4 lineto
34775.8 35681.7 lineto
stroke
newpath
35338.2 35962.9 moveto
35338.2 34781.8 lineto
stroke
newpath
35338.2 35906.6 moveto
35450.7 35962.9 lineto
35675.6 35962.9 lineto
35788.1 35906.6 lineto
35844.4 35850.4 lineto
35900.6 35737.9 lineto
35900.6 35400.5 lineto
35844.4 35288 lineto
35788.1 35231.7 lineto
35675.6 35175.5 lineto
35450.7 35175.5 lineto
35338.2 35231.7 lineto
stroke
newpath
36406.8 35288 moveto
36463 35231.7 lineto
36406.8 35175.5 lineto
36350.6 35231.7 lineto
36406.8 35288 lineto
36406.8 35175.5 lineto
stroke
newpath
36406.8 35906.6 moveto
36463 35850.4 lineto
36406.8 35794.2 lineto
36350.6 35850.4 lineto
36406.8 35906.6 lineto
36406.8 35794.2 lineto
stroke
showpage
grestore
%%EOF
