%!PS-Adobe-3.0
%%Creator: PCBNEW
%%CreationDate: Fri Sep 13 14:51:08 2019
%%Title: /home/doug/Documents/Personal/psc/hardware/gerbers/psc-PTH-drl_map.ps
%%Pages: 1
%%PageOrder: Ascend
%%BoundingBox: 0 0 596 842
%%DocumentMedia: A4 595 842 0 () ()
%%Orientation: Landscape
%%EndComments
%%BeginProlog
/line { newpath moveto lineto stroke } bind def
/cir0 { newpath 0 360 arc stroke } bind def
/cir1 { newpath 0 360 arc gsave fill grestore stroke } bind def
/cir2 { newpath 0 360 arc gsave fill grestore stroke } bind def
/arc0 { newpath arc stroke } bind def
/arc1 { newpath 4 index 4 index moveto arc closepath gsave fill
    grestore stroke } bind def
/arc2 { newpath 4 index 4 index moveto arc closepath gsave fill
    grestore stroke } bind def
/poly0 { stroke } bind def
/poly1 { closepath gsave fill grestore stroke } bind def
/poly2 { closepath gsave fill grestore stroke } bind def
/rect0 { rectstroke } bind def
/rect1 { rectfill } bind def
/rect2 { rectfill } bind def
/linemode0 { 0 setlinecap 0 setlinejoin 0 setlinewidth } bind def
/linemode1 { 1 setlinecap 1 setlinejoin } bind def
/dashedline { [200] 100 setdash } bind def
/solidline { [] 0 setdash } bind def
/phantomshow { moveto
    /KicadFont findfont 0.000001 scalefont setfont
    show } bind def
/textshow { gsave
    findfont exch scalefont setfont concat 1 scale 0 0 moveto show
    } bind def
/reencodefont {
  findfont dup length dict begin
  { 1 index /FID ne
    { def }
    { pop pop } ifelse
  } forall
  /Encoding ISOLatin1Encoding def
  currentdict
  end } bind def
/KicadFont /Helvetica reencodefont definefont pop
/KicadFont-Bold /Helvetica-Bold reencodefont definefont pop
/KicadFont-Oblique /Helvetica-Oblique reencodefont definefont pop
/KicadFont-BoldOblique /Helvetica-BoldOblique reencodefont definefont pop
%%EndProlog
%%Page: 1 1
%%BeginPageSetup
gsave
0.0072 0.0072 scale
linemode1
82680 0 translate 90 rotate
52.9228 setlinewidth
%%EndPageSetup
0 0 0 setrgbcolor
62.5072 setlinewidth
88468.5 38290.4 625.072 cir0
0 0 0 setrgbcolor
28461.5 38290.4 658.884 cir0
0 0 0 setrgbcolor
newpath
27211.4 37040.3 moveto
89718.6 37040.3 lineto
stroke
0 0 0 setrgbcolor
newpath
89718.6 78711.7 moveto
27211.4 78711.7 lineto
stroke
0 0 0 setrgbcolor
28461.5 77461.6 625.072 cir0
0 0 0 setrgbcolor
88468.5 77461.6 658.884 cir0
0 0 0 setrgbcolor
newpath
89718.6 37040.3 moveto
89718.6 78711.7 lineto
stroke
0 0 0 setrgbcolor
newpath
27211.4 78711.7 moveto
27211.4 37040.3 lineto
stroke
78.7399 setlinewidth
newpath
77475.5 65622.7 moveto
77767.2 65331 lineto
stroke
newpath
77767.2 65622.7 moveto
77475.5 65331 lineto
stroke
newpath
34078.9 45512.1 moveto
34370.6 45220.4 lineto
stroke
newpath
34370.6 45512.1 moveto
34078.9 45220.4 lineto
stroke
newpath
34078.9 42336.7 moveto
34370.6 42045 lineto
stroke
newpath
34370.6 42336.7 moveto
34078.9 42045 lineto
stroke
newpath
77475.5 67739.6 moveto
77767.2 67447.9 lineto
stroke
newpath
77767.2 67739.6 moveto
77475.5 67447.9 lineto
stroke
newpath
78534 67739.6 moveto
78825.7 67447.9 lineto
stroke
newpath
78825.7 67739.6 moveto
78534 67447.9 lineto
stroke
newpath
78534 65622.7 moveto
78825.7 65331 lineto
stroke
newpath
78825.7 65622.7 moveto
78534 65331 lineto
stroke
newpath
65832.5 62447.4 moveto
66124.2 62155.7 lineto
stroke
newpath
66124.2 62447.4 moveto
65832.5 62155.7 lineto
stroke
newpath
65832.5 61388.9 moveto
66124.2 61097.2 lineto
stroke
newpath
66124.2 61388.9 moveto
65832.5 61097.2 lineto
stroke
newpath
65832.5 60330.5 moveto
66124.2 60038.7 lineto
stroke
newpath
66124.2 60330.5 moveto
65832.5 60038.7 lineto
stroke
newpath
65832.5 59272 moveto
66124.2 58980.3 lineto
stroke
newpath
66124.2 59272 moveto
65832.5 58980.3 lineto
stroke
newpath
77475.5 66681.2 moveto
77767.2 66389.5 lineto
stroke
newpath
77767.2 66681.2 moveto
77475.5 66389.5 lineto
stroke
newpath
78534 66681.2 moveto
78825.7 66389.5 lineto
stroke
newpath
78825.7 66681.2 moveto
78534 66389.5 lineto
stroke
31049.3 65476.9 166.686 cir0
31049.3 64418.4 166.686 cir0
31049.3 63360 166.686 cir0
31049.3 62301.5 166.686 cir0
31049.3 61243.1 166.686 cir0
31049.3 60184.6 166.686 cir0
31049.3 59126.1 166.686 cir0
31049.3 58067.7 166.686 cir0
31049.3 57009.2 166.686 cir0
31049.3 55950.8 166.686 cir0
31049.3 54892.3 166.686 cir0
31049.3 53833.9 166.686 cir0
31049.3 52775.4 166.686 cir0
31049.3 51717 166.686 cir0
31049.3 50658.5 166.686 cir0
37400.1 65476.9 166.686 cir0
37400.1 64418.4 166.686 cir0
37400.1 63360 166.686 cir0
37400.1 62301.5 166.686 cir0
37400.1 61243.1 166.686 cir0
37400.1 60184.6 166.686 cir0
37400.1 59126.1 166.686 cir0
37400.1 58067.7 166.686 cir0
37400.1 57009.2 166.686 cir0
37400.1 55950.8 166.686 cir0
37400.1 54892.3 166.686 cir0
37400.1 53833.9 166.686 cir0
37400.1 52775.4 166.686 cir0
37400.1 51717 166.686 cir0
37400.1 50658.5 166.686 cir0
80796.7 67593.8 166.686 cir0
80796.7 66535.3 166.686 cir0
80796.7 65476.9 166.686 cir0
80796.7 64418.4 166.686 cir0
80796.7 63360 166.686 cir0
80796.7 62301.5 166.686 cir0
80796.7 61243.1 166.686 cir0
80796.7 60184.6 166.686 cir0
80796.7 59126.1 166.686 cir0
80796.7 58067.7 166.686 cir0
80796.7 57009.2 166.686 cir0
80796.7 55950.8 166.686 cir0
80796.7 54892.3 166.686 cir0
80796.7 53833.9 166.686 cir0
83972.1 67593.8 166.686 cir0
83972.1 66535.3 166.686 cir0
83972.1 65476.9 166.686 cir0
83972.1 64418.4 166.686 cir0
83972.1 63360 166.686 cir0
83972.1 62301.5 166.686 cir0
83972.1 61243.1 166.686 cir0
83972.1 60184.6 166.686 cir0
83972.1 59126.1 166.686 cir0
83972.1 58067.7 166.686 cir0
83972.1 57009.2 166.686 cir0
83972.1 55950.8 166.686 cir0
83972.1 54892.3 166.686 cir0
83972.1 53833.9 166.686 cir0
40575.4 69710.7 166.686 cir0
40575.4 68652.2 166.686 cir0
40575.4 67593.8 166.686 cir0
40575.4 66535.3 166.686 cir0
40575.4 65476.9 166.686 cir0
40575.4 64418.4 166.686 cir0
40575.4 63360 166.686 cir0
40575.4 62301.5 166.686 cir0
40575.4 61243.1 166.686 cir0
40575.4 60184.6 166.686 cir0
40575.4 59126.1 166.686 cir0
40575.4 58067.7 166.686 cir0
40575.4 57009.2 166.686 cir0
40575.4 55950.8 166.686 cir0
40575.4 54892.3 166.686 cir0
40575.4 53833.9 166.686 cir0
40575.4 52775.4 166.686 cir0
40575.4 51717 166.686 cir0
40575.4 50658.5 166.686 cir0
40575.4 49600 166.686 cir0
46926.2 69710.7 166.686 cir0
46926.2 68652.2 166.686 cir0
46926.2 67593.8 166.686 cir0
46926.2 66535.3 166.686 cir0
46926.2 65476.9 166.686 cir0
46926.2 64418.4 166.686 cir0
46926.2 63360 166.686 cir0
46926.2 62301.5 166.686 cir0
46926.2 61243.1 166.686 cir0
46926.2 60184.6 166.686 cir0
46926.2 59126.1 166.686 cir0
46926.2 58067.7 166.686 cir0
46926.2 57009.2 166.686 cir0
46926.2 55950.8 166.686 cir0
46926.2 54892.3 166.686 cir0
46926.2 53833.9 166.686 cir0
46926.2 52775.4 166.686 cir0
46926.2 51717 166.686 cir0
46926.2 50658.5 166.686 cir0
46926.2 49600 166.686 cir0
72329.1 50658.5 166.686 cir0
72329.1 47483.1 166.686 cir0
73387.6 50658.5 166.686 cir0
73387.6 47483.1 166.686 cir0
74446 50658.5 166.686 cir0
74446 47483.1 166.686 cir0
75504.5 50658.5 166.686 cir0
75504.5 47483.1 166.686 cir0
76562.9 50658.5 166.686 cir0
76562.9 47483.1 166.686 cir0
newpath
77621.4 60393 moveto
77621.4 59976.2 lineto
stroke
newpath
77413 60184.6 moveto
77829.7 60184.6 lineto
stroke
newpath
86089 67802.1 moveto
86089 67385.4 lineto
stroke
newpath
85880.7 67593.8 moveto
86297.4 67593.8 lineto
stroke
newpath
86089 66743.7 moveto
86089 66327 lineto
stroke
newpath
85880.7 66535.3 moveto
86297.4 66535.3 lineto
stroke
newpath
86089 65685.2 moveto
86089 65268.5 lineto
stroke
newpath
85880.7 65476.9 moveto
86297.4 65476.9 lineto
stroke
newpath
86089 64626.8 moveto
86089 64210.1 lineto
stroke
newpath
85880.7 64418.4 moveto
86297.4 64418.4 lineto
stroke
newpath
75504.5 67802.1 moveto
75504.5 67385.4 lineto
stroke
newpath
75296.1 67593.8 moveto
75712.8 67593.8 lineto
stroke
newpath
75504.5 66743.7 moveto
75504.5 66327 lineto
stroke
newpath
75296.1 66535.3 moveto
75712.8 66535.3 lineto
stroke
newpath
75504.5 65685.2 moveto
75504.5 65268.5 lineto
stroke
newpath
75296.1 65476.9 moveto
75712.8 65476.9 lineto
stroke
newpath
75504.5 64626.8 moveto
75504.5 64210.1 lineto
stroke
newpath
75296.1 64418.4 moveto
75712.8 64418.4 lineto
stroke
newpath
49043.1 59334.5 moveto
49043.1 58917.8 lineto
stroke
newpath
48834.7 59126.1 moveto
49251.4 59126.1 lineto
stroke
newpath
49043.1 58276 moveto
49043.1 57859.3 lineto
stroke
newpath
48834.7 58067.7 moveto
49251.4 58067.7 lineto
stroke
newpath
49043.1 57217.6 moveto
49043.1 56800.9 lineto
stroke
newpath
48834.7 57009.2 moveto
49251.4 57009.2 lineto
stroke
newpath
86089 63568.3 moveto
86089 63151.6 lineto
stroke
newpath
85880.7 63360 moveto
86297.4 63360 lineto
stroke
newpath
86089 62509.9 moveto
86089 62093.2 lineto
stroke
newpath
85880.7 62301.5 moveto
86297.4 62301.5 lineto
stroke
newpath
86089 61451.4 moveto
86089 61034.7 lineto
stroke
newpath
85880.7 61243.1 moveto
86297.4 61243.1 lineto
stroke
newpath
86089 60393 moveto
86089 59976.2 lineto
stroke
newpath
85880.7 60184.6 moveto
86297.4 60184.6 lineto
stroke
newpath
32107.8 42399.2 moveto
32107.8 41982.5 lineto
stroke
newpath
31899.4 42190.9 moveto
32316.1 42190.9 lineto
stroke
newpath
32107.8 41340.8 moveto
32107.8 40924 lineto
stroke
newpath
31899.4 41132.4 moveto
32316.1 41132.4 lineto
stroke
newpath
68095.3 59334.5 moveto
68095.3 58917.8 lineto
stroke
newpath
67886.9 59126.1 moveto
68303.6 59126.1 lineto
stroke
newpath
68095.3 58276 moveto
68095.3 57859.3 lineto
stroke
newpath
67886.9 58067.7 moveto
68303.6 58067.7 lineto
stroke
newpath
68095.3 57217.6 moveto
68095.3 56800.9 lineto
stroke
newpath
67886.9 57009.2 moveto
68303.6 57009.2 lineto
stroke
newpath
68095.3 56159.1 moveto
68095.3 55742.4 lineto
stroke
newpath
67886.9 55950.8 moveto
68303.6 55950.8 lineto
stroke
newpath
68095.3 55100.7 moveto
68095.3 54684 lineto
stroke
newpath
67886.9 54892.3 moveto
68303.6 54892.3 lineto
stroke
newpath
68095.3 54042.2 moveto
68095.3 53625.5 lineto
stroke
newpath
67886.9 53833.9 moveto
68303.6 53833.9 lineto
stroke
newpath
68095.3 52983.8 moveto
68095.3 52567.1 lineto
stroke
newpath
67886.9 52775.4 moveto
68303.6 52775.4 lineto
stroke
newpath
68095.3 51925.3 moveto
68095.3 51508.6 lineto
stroke
newpath
67886.9 51717 moveto
68303.6 51717 lineto
stroke
newpath
72329.1 45574.6 moveto
72329.1 45157.9 lineto
stroke
newpath
72120.7 45366.2 moveto
72537.5 45366.2 lineto
stroke
newpath
73387.6 45574.6 moveto
73387.6 45157.9 lineto
stroke
newpath
73179.2 45366.2 moveto
73595.9 45366.2 lineto
stroke
newpath
74446 45574.6 moveto
74446 45157.9 lineto
stroke
newpath
74237.7 45366.2 moveto
74654.4 45366.2 lineto
stroke
newpath
75504.5 45574.6 moveto
75504.5 45157.9 lineto
stroke
newpath
75296.1 45366.2 moveto
75712.8 45366.2 lineto
stroke
newpath
49043.1 52983.8 moveto
49043.1 52567.1 lineto
stroke
newpath
48834.7 52775.4 moveto
49251.4 52775.4 lineto
stroke
newpath
49043.1 51925.3 moveto
49043.1 51508.6 lineto
stroke
newpath
48834.7 51717 moveto
49251.4 51717 lineto
stroke
newpath
49043.1 50866.9 moveto
49043.1 50450.1 lineto
stroke
newpath
48834.7 50658.5 moveto
49251.4 50658.5 lineto
stroke
newpath
32107.8 45574.6 moveto
32107.8 45157.9 lineto
stroke
newpath
31899.4 45366.2 moveto
32316.1 45366.2 lineto
stroke
newpath
32107.8 44516.1 moveto
32107.8 44099.4 lineto
stroke
newpath
31899.4 44307.8 moveto
32316.1 44307.8 lineto
stroke
newpath
49043.1 62509.9 moveto
49043.1 62093.2 lineto
stroke
newpath
48834.7 62301.5 moveto
49251.4 62301.5 lineto
stroke
newpath
49043.1 61451.4 moveto
49043.1 61034.7 lineto
stroke
newpath
48834.7 61243.1 moveto
49251.4 61243.1 lineto
stroke
newpath
49043.1 60393 moveto
49043.1 59976.2 lineto
stroke
newpath
48834.7 60184.6 moveto
49251.4 60184.6 lineto
stroke
newpath
52371.7 64264.7 moveto
52371.7 64571.1 lineto
52065.2 64571.1 lineto
52065.2 64264.7 lineto
52371.7 64264.7 lineto
poly0
newpath
52371.7 63206.2 moveto
52371.7 63512.7 lineto
52065.2 63512.7 lineto
52065.2 63206.2 lineto
52371.7 63206.2 lineto
poly0
newpath
52371.7 62147.8 moveto
52371.7 62454.2 lineto
52065.2 62454.2 lineto
52065.2 62147.8 lineto
52371.7 62147.8 lineto
poly0
newpath
52371.7 61089.3 moveto
52371.7 61395.8 lineto
52065.2 61395.8 lineto
52065.2 61089.3 lineto
52371.7 61089.3 lineto
poly0
newpath
52371.7 60030.9 moveto
52371.7 60337.3 lineto
52065.2 60337.3 lineto
52065.2 60030.9 lineto
52371.7 60030.9 lineto
poly0
newpath
52371.7 58972.4 moveto
52371.7 59278.9 lineto
52065.2 59278.9 lineto
52065.2 58972.4 lineto
52371.7 58972.4 lineto
poly0
newpath
52371.7 57914 moveto
52371.7 58220.4 lineto
52065.2 58220.4 lineto
52065.2 57914 lineto
52371.7 57914 lineto
poly0
newpath
52371.7 56855.5 moveto
52371.7 57162 lineto
52065.2 57162 lineto
52065.2 56855.5 lineto
52371.7 56855.5 lineto
poly0
newpath
52371.7 55797.1 moveto
52371.7 56103.5 lineto
52065.2 56103.5 lineto
52065.2 55797.1 lineto
52371.7 55797.1 lineto
poly0
newpath
52371.7 54738.6 moveto
52371.7 55045 lineto
52065.2 55045 lineto
52065.2 54738.6 lineto
52371.7 54738.6 lineto
poly0
newpath
52371.7 53680.1 moveto
52371.7 53986.6 lineto
52065.2 53986.6 lineto
52065.2 53680.1 lineto
52371.7 53680.1 lineto
poly0
newpath
52371.7 52621.7 moveto
52371.7 52928.1 lineto
52065.2 52928.1 lineto
52065.2 52621.7 lineto
52371.7 52621.7 lineto
poly0
newpath
52371.7 51563.2 moveto
52371.7 51869.7 lineto
52065.2 51869.7 lineto
52065.2 51563.2 lineto
52371.7 51563.2 lineto
poly0
newpath
52371.7 50504.8 moveto
52371.7 50811.2 lineto
52065.2 50811.2 lineto
52065.2 50504.8 lineto
52371.7 50504.8 lineto
poly0
newpath
52371.7 49446.3 moveto
52371.7 49752.8 lineto
52065.2 49752.8 lineto
52065.2 49446.3 lineto
52371.7 49446.3 lineto
poly0
newpath
52371.7 48387.9 moveto
52371.7 48694.3 lineto
52065.2 48694.3 lineto
52065.2 48387.9 lineto
52371.7 48387.9 lineto
poly0
newpath
52371.7 47329.4 moveto
52371.7 47635.9 lineto
52065.2 47635.9 lineto
52065.2 47329.4 lineto
52371.7 47329.4 lineto
poly0
newpath
52371.7 46271 moveto
52371.7 46577.4 lineto
52065.2 46577.4 lineto
52065.2 46271 lineto
52371.7 46271 lineto
poly0
newpath
52371.7 45212.5 moveto
52371.7 45518.9 lineto
52065.2 45518.9 lineto
52065.2 45212.5 lineto
52371.7 45212.5 lineto
poly0
newpath
62956.2 64264.7 moveto
62956.2 64571.1 lineto
62649.8 64571.1 lineto
62649.8 64264.7 lineto
62956.2 64264.7 lineto
poly0
newpath
62956.2 63206.2 moveto
62956.2 63512.7 lineto
62649.8 63512.7 lineto
62649.8 63206.2 lineto
62956.2 63206.2 lineto
poly0
newpath
62956.2 62147.8 moveto
62956.2 62454.2 lineto
62649.8 62454.2 lineto
62649.8 62147.8 lineto
62956.2 62147.8 lineto
poly0
newpath
62956.2 61089.3 moveto
62956.2 61395.8 lineto
62649.8 61395.8 lineto
62649.8 61089.3 lineto
62956.2 61089.3 lineto
poly0
newpath
62956.2 60030.9 moveto
62956.2 60337.3 lineto
62649.8 60337.3 lineto
62649.8 60030.9 lineto
62956.2 60030.9 lineto
poly0
newpath
62956.2 58972.4 moveto
62956.2 59278.9 lineto
62649.8 59278.9 lineto
62649.8 58972.4 lineto
62956.2 58972.4 lineto
poly0
newpath
62956.2 57914 moveto
62956.2 58220.4 lineto
62649.8 58220.4 lineto
62649.8 57914 lineto
62956.2 57914 lineto
poly0
newpath
62956.2 56855.5 moveto
62956.2 57162 lineto
62649.8 57162 lineto
62649.8 56855.5 lineto
62956.2 56855.5 lineto
poly0
newpath
62956.2 55797.1 moveto
62956.2 56103.5 lineto
62649.8 56103.5 lineto
62649.8 55797.1 lineto
62956.2 55797.1 lineto
poly0
newpath
62956.2 54738.6 moveto
62956.2 55045 lineto
62649.8 55045 lineto
62649.8 54738.6 lineto
62956.2 54738.6 lineto
poly0
newpath
62956.2 53680.1 moveto
62956.2 53986.6 lineto
62649.8 53986.6 lineto
62649.8 53680.1 lineto
62956.2 53680.1 lineto
poly0
newpath
62956.2 52621.7 moveto
62956.2 52928.1 lineto
62649.8 52928.1 lineto
62649.8 52621.7 lineto
62956.2 52621.7 lineto
poly0
newpath
62956.2 51563.2 moveto
62956.2 51869.7 lineto
62649.8 51869.7 lineto
62649.8 51563.2 lineto
62956.2 51563.2 lineto
poly0
newpath
62956.2 50504.8 moveto
62956.2 50811.2 lineto
62649.8 50811.2 lineto
62649.8 50504.8 lineto
62956.2 50504.8 lineto
poly0
newpath
62956.2 49446.3 moveto
62956.2 49752.8 lineto
62649.8 49752.8 lineto
62649.8 49446.3 lineto
62956.2 49446.3 lineto
poly0
newpath
62956.2 48387.9 moveto
62956.2 48694.3 lineto
62649.8 48694.3 lineto
62649.8 48387.9 lineto
62956.2 48387.9 lineto
poly0
newpath
62956.2 47329.4 moveto
62956.2 47635.9 lineto
62649.8 47635.9 lineto
62649.8 47329.4 lineto
62956.2 47329.4 lineto
poly0
newpath
62956.2 46271 moveto
62956.2 46577.4 lineto
62649.8 46577.4 lineto
62649.8 46271 lineto
62956.2 46271 lineto
poly0
newpath
62956.2 45212.5 moveto
62956.2 45518.9 lineto
62649.8 45518.9 lineto
62649.8 45212.5 lineto
62956.2 45212.5 lineto
poly0
118.11 setlinewidth
0 0 0 setrgbcolor
0 0 0 setrgbcolor
newpath
28307.8 35175.5 moveto
28307.8 36356.6 lineto
28589 36356.6 lineto
28757.8 36300.3 lineto
28870.2 36187.9 lineto
28926.5 36075.4 lineto
28982.7 35850.4 lineto
28982.7 35681.7 lineto
28926.5 35456.7 lineto
28870.2 35344.2 lineto
28757.8 35231.7 lineto
28589 35175.5 lineto
28307.8 35175.5 lineto
stroke
newpath
29488.9 35175.5 moveto
29488.9 35962.9 lineto
stroke
newpath
29488.9 35737.9 moveto
29545.2 35850.4 lineto
29601.4 35906.6 lineto
29713.9 35962.9 lineto
29826.4 35962.9 lineto
stroke
newpath
30220.1 35175.5 moveto
30220.1 35962.9 lineto
stroke
newpath
30220.1 36356.6 moveto
30163.8 36300.3 lineto
30220.1 36244.1 lineto
30276.3 36300.3 lineto
30220.1 36356.6 lineto
30220.1 36244.1 lineto
stroke
newpath
30951.2 35175.5 moveto
30838.7 35231.7 lineto
30782.5 35344.2 lineto
30782.5 36356.6 lineto
stroke
newpath
31569.9 35175.5 moveto
31457.4 35231.7 lineto
31401.2 35344.2 lineto
31401.2 36356.6 lineto
stroke
newpath
32919.7 35175.5 moveto
32919.7 36356.6 lineto
33313.4 35512.9 lineto
33707.1 36356.6 lineto
33707.1 35175.5 lineto
stroke
newpath
34775.8 35175.5 moveto
34775.8 35794.2 lineto
34719.5 35906.6 lineto
34607 35962.9 lineto
34382.1 35962.9 lineto
34269.6 35906.6 lineto
stroke
newpath
34775.8 35231.7 moveto
34663.3 35175.5 lineto
34382.1 35175.5 lineto
34269.6 35231.7 lineto
34213.3 35344.2 lineto
34213.3 35456.7 lineto
34269.6 35569.2 lineto
34382.1 35625.4 lineto
34663.3 35625.4 lineto
34775.8 35681.7 lineto
stroke
newpath
35338.2 35962.9 moveto
35338.2 34781.8 lineto
stroke
newpath
35338.2 35906.6 moveto
35450.7 35962.9 lineto
35675.6 35962.9 lineto
35788.1 35906.6 lineto
35844.4 35850.4 lineto
35900.6 35737.9 lineto
35900.6 35400.5 lineto
35844.4 35288 lineto
35788.1 35231.7 lineto
35675.6 35175.5 lineto
35450.7 35175.5 lineto
35338.2 35231.7 lineto
stroke
newpath
36406.8 35288 moveto
36463 35231.7 lineto
36406.8 35175.5 lineto
36350.6 35231.7 lineto
36406.8 35288 lineto
36406.8 35175.5 lineto
stroke
newpath
36406.8 35906.6 moveto
36463 35850.4 lineto
36406.8 35794.2 lineto
36350.6 35850.4 lineto
36406.8 35906.6 lineto
36406.8 35794.2 lineto
stroke
newpath
26888.4 33375.3 moveto
27180.1 33083.6 lineto
stroke
newpath
27180.1 33375.3 moveto
26888.4 33083.6 lineto
stroke
0 0 0 setrgbcolor
0 0 0 setrgbcolor
newpath
28532.8 33876.3 moveto
28645.3 33876.3 lineto
28757.8 33820 lineto
28814 33763.8 lineto
28870.2 33651.3 lineto
28926.5 33426.3 lineto
28926.5 33145.1 lineto
28870.2 32920.1 lineto
28814 32807.7 lineto
28757.8 32751.4 lineto
28645.3 32695.2 lineto
28532.8 32695.2 lineto
28420.3 32751.4 lineto
28364.1 32807.7 lineto
28307.8 32920.1 lineto
28251.6 33145.1 lineto
28251.6 33426.3 lineto
28307.8 33651.3 lineto
28364.1 33763.8 lineto
28420.3 33820 lineto
28532.8 33876.3 lineto
stroke
newpath
29432.7 32807.7 moveto
29488.9 32751.4 lineto
29432.7 32695.2 lineto
29376.4 32751.4 lineto
29432.7 32807.7 lineto
29432.7 32695.2 lineto
stroke
newpath
29882.6 33876.3 moveto
30670 33876.3 lineto
30163.8 32695.2 lineto
stroke
newpath
31344.9 33876.3 moveto
31457.4 33876.3 lineto
31569.9 33820 lineto
31626.1 33763.8 lineto
31682.4 33651.3 lineto
31738.6 33426.3 lineto
31738.6 33145.1 lineto
31682.4 32920.1 lineto
31626.1 32807.7 lineto
31569.9 32751.4 lineto
31457.4 32695.2 lineto
31344.9 32695.2 lineto
31232.4 32751.4 lineto
31176.2 32807.7 lineto
31120 32920.1 lineto
31063.7 33145.1 lineto
31063.7 33426.3 lineto
31120 33651.3 lineto
31176.2 33763.8 lineto
31232.4 33820 lineto
31344.9 33876.3 lineto
stroke
newpath
32244.8 32695.2 moveto
32244.8 33482.6 lineto
stroke
newpath
32244.8 33370.1 moveto
32301.1 33426.3 lineto
32413.5 33482.6 lineto
32582.3 33482.6 lineto
32694.8 33426.3 lineto
32751 33313.8 lineto
32751 32695.2 lineto
stroke
newpath
32751 33313.8 moveto
32807.2 33426.3 lineto
32919.7 33482.6 lineto
33088.5 33482.6 lineto
33200.9 33426.3 lineto
33257.2 33313.8 lineto
33257.2 32695.2 lineto
stroke
newpath
33819.6 32695.2 moveto
33819.6 33482.6 lineto
stroke
newpath
33819.6 33370.1 moveto
33875.9 33426.3 lineto
33988.4 33482.6 lineto
34157.1 33482.6 lineto
34269.6 33426.3 lineto
34325.8 33313.8 lineto
34325.8 32695.2 lineto
stroke
newpath
34325.8 33313.8 moveto
34382.1 33426.3 lineto
34494.5 33482.6 lineto
34663.3 33482.6 lineto
34775.8 33426.3 lineto
34832 33313.8 lineto
34832 32695.2 lineto
stroke
newpath
37138 33932.5 moveto
36125.6 32414 lineto
stroke
newpath
38656.5 33876.3 moveto
38769 33876.3 lineto
38881.5 33820 lineto
38937.7 33763.8 lineto
38994 33651.3 lineto
39050.2 33426.3 lineto
39050.2 33145.1 lineto
38994 32920.1 lineto
38937.7 32807.7 lineto
38881.5 32751.4 lineto
38769 32695.2 lineto
38656.5 32695.2 lineto
38544 32751.4 lineto
38487.8 32807.7 lineto
38431.5 32920.1 lineto
38375.3 33145.1 lineto
38375.3 33426.3 lineto
38431.5 33651.3 lineto
38487.8 33763.8 lineto
38544 33820 lineto
38656.5 33876.3 lineto
stroke
newpath
39556.4 32807.7 moveto
39612.6 32751.4 lineto
39556.4 32695.2 lineto
39500.2 32751.4 lineto
39556.4 32807.7 lineto
39556.4 32695.2 lineto
stroke
newpath
40343.8 33876.3 moveto
40456.3 33876.3 lineto
40568.8 33820 lineto
40625 33763.8 lineto
40681.3 33651.3 lineto
40737.5 33426.3 lineto
40737.5 33145.1 lineto
40681.3 32920.1 lineto
40625 32807.7 lineto
40568.8 32751.4 lineto
40456.3 32695.2 lineto
40343.8 32695.2 lineto
40231.3 32751.4 lineto
40175.1 32807.7 lineto
40118.8 32920.1 lineto
40062.6 33145.1 lineto
40062.6 33426.3 lineto
40118.8 33651.3 lineto
40175.1 33763.8 lineto
40231.3 33820 lineto
40343.8 33876.3 lineto
stroke
newpath
41187.5 33763.8 moveto
41243.7 33820 lineto
41356.2 33876.3 lineto
41637.4 33876.3 lineto
41749.9 33820 lineto
41806.1 33763.8 lineto
41862.4 33651.3 lineto
41862.4 33538.8 lineto
41806.1 33370.1 lineto
41131.2 32695.2 lineto
41862.4 32695.2 lineto
stroke
newpath
42537.3 33370.1 moveto
42424.8 33426.3 lineto
42368.6 33482.6 lineto
42312.3 33595.1 lineto
42312.3 33651.3 lineto
42368.6 33763.8 lineto
42424.8 33820 lineto
42537.3 33876.3 lineto
42762.3 33876.3 lineto
42874.7 33820 lineto
42931 33763.8 lineto
42987.2 33651.3 lineto
42987.2 33595.1 lineto
42931 33482.6 lineto
42874.7 33426.3 lineto
42762.3 33370.1 lineto
42537.3 33370.1 lineto
42424.8 33313.8 lineto
42368.6 33257.6 lineto
42312.3 33145.1 lineto
42312.3 32920.1 lineto
42368.6 32807.7 lineto
42424.8 32751.4 lineto
42537.3 32695.2 lineto
42762.3 32695.2 lineto
42874.7 32751.4 lineto
42931 32807.7 lineto
42987.2 32920.1 lineto
42987.2 33145.1 lineto
42931 33257.6 lineto
42874.7 33313.8 lineto
42762.3 33370.1 lineto
stroke
newpath
43437.2 33876.3 moveto
43437.2 33651.3 lineto
stroke
newpath
43887.1 33876.3 moveto
43887.1 33651.3 lineto
stroke
newpath
45630.6 32245.2 moveto
45574.4 32301.5 lineto
45461.9 32470.2 lineto
45405.7 32582.7 lineto
45349.4 32751.4 lineto
45293.2 33032.6 lineto
45293.2 33257.6 lineto
45349.4 33538.8 lineto
45405.7 33707.5 lineto
45461.9 33820 lineto
45574.4 33988.8 lineto
45630.6 34045 lineto
stroke
newpath
46699.3 32695.2 moveto
46024.3 32695.2 lineto
stroke
newpath
46361.8 32695.2 moveto
46361.8 33876.3 lineto
46249.3 33707.5 lineto
46136.8 33595.1 lineto
46024.3 33538.8 lineto
stroke
newpath
47149.2 33763.8 moveto
47205.5 33820 lineto
47317.9 33876.3 lineto
47599.2 33876.3 lineto
47711.6 33820 lineto
47767.9 33763.8 lineto
47824.1 33651.3 lineto
47824.1 33538.8 lineto
47767.9 33370.1 lineto
47093 32695.2 lineto
47824.1 32695.2 lineto
stroke
newpath
49230.2 32695.2 moveto
49230.2 33876.3 lineto
stroke
newpath
49736.4 32695.2 moveto
49736.4 33313.8 lineto
49680.1 33426.3 lineto
49567.7 33482.6 lineto
49398.9 33482.6 lineto
49286.4 33426.3 lineto
49230.2 33370.1 lineto
stroke
newpath
50467.5 32695.2 moveto
50355.1 32751.4 lineto
50298.8 32807.7 lineto
50242.6 32920.1 lineto
50242.6 33257.6 lineto
50298.8 33370.1 lineto
50355.1 33426.3 lineto
50467.5 33482.6 lineto
50636.3 33482.6 lineto
50748.8 33426.3 lineto
50805 33370.1 lineto
50861.2 33257.6 lineto
50861.2 32920.1 lineto
50805 32807.7 lineto
50748.8 32751.4 lineto
50636.3 32695.2 lineto
50467.5 32695.2 lineto
stroke
newpath
51536.2 32695.2 moveto
51423.7 32751.4 lineto
51367.4 32863.9 lineto
51367.4 33876.3 lineto
stroke
newpath
52436 32751.4 moveto
52323.6 32695.2 lineto
52098.6 32695.2 lineto
51986.1 32751.4 lineto
51929.9 32863.9 lineto
51929.9 33313.8 lineto
51986.1 33426.3 lineto
52098.6 33482.6 lineto
52323.6 33482.6 lineto
52436 33426.3 lineto
52492.3 33313.8 lineto
52492.3 33201.4 lineto
51929.9 33088.9 lineto
stroke
newpath
52942.2 32751.4 moveto
53054.7 32695.2 lineto
53279.7 32695.2 lineto
53392.2 32751.4 lineto
53448.4 32863.9 lineto
53448.4 32920.1 lineto
53392.2 33032.6 lineto
53279.7 33088.9 lineto
53111 33088.9 lineto
52998.5 33145.1 lineto
52942.2 33257.6 lineto
52942.2 33313.8 lineto
52998.5 33426.3 lineto
53111 33482.6 lineto
53279.7 33482.6 lineto
53392.2 33426.3 lineto
stroke
newpath
53842.1 32245.2 moveto
53898.4 32301.5 lineto
54010.9 32470.2 lineto
54067.1 32582.7 lineto
54123.3 32751.4 lineto
54179.6 33032.6 lineto
54179.6 33257.6 lineto
54123.3 33538.8 lineto
54067.1 33707.5 lineto
54010.9 33820 lineto
53898.4 33988.8 lineto
53842.1 34045 lineto
stroke
27013.5 31670.4 166.686 cir0
0 0 0 setrgbcolor
0 0 0 setrgbcolor
newpath
28532.8 32317.2 moveto
28645.3 32317.2 lineto
28757.8 32261 lineto
28814 32204.7 lineto
28870.2 32092.2 lineto
28926.5 31867.3 lineto
28926.5 31586.1 lineto
28870.2 31361.1 lineto
28814 31248.6 lineto
28757.8 31192.4 lineto
28645.3 31136.1 lineto
28532.8 31136.1 lineto
28420.3 31192.4 lineto
28364.1 31248.6 lineto
28307.8 31361.1 lineto
28251.6 31586.1 lineto
28251.6 31867.3 lineto
28307.8 32092.2 lineto
28364.1 32204.7 lineto
28420.3 32261 lineto
28532.8 32317.2 lineto
stroke
newpath
29432.7 31248.6 moveto
29488.9 31192.4 lineto
29432.7 31136.1 lineto
29376.4 31192.4 lineto
29432.7 31248.6 lineto
29432.7 31136.1 lineto
stroke
newpath
30163.8 31811 moveto
30051.3 31867.3 lineto
29995.1 31923.5 lineto
29938.9 32036 lineto
29938.9 32092.2 lineto
29995.1 32204.7 lineto
30051.3 32261 lineto
30163.8 32317.2 lineto
30388.8 32317.2 lineto
30501.3 32261 lineto
30557.5 32204.7 lineto
30613.8 32092.2 lineto
30613.8 32036 lineto
30557.5 31923.5 lineto
30501.3 31867.3 lineto
30388.8 31811 lineto
30163.8 31811 lineto
30051.3 31754.8 lineto
29995.1 31698.5 lineto
29938.9 31586.1 lineto
29938.9 31361.1 lineto
29995.1 31248.6 lineto
30051.3 31192.4 lineto
30163.8 31136.1 lineto
30388.8 31136.1 lineto
30501.3 31192.4 lineto
30557.5 31248.6 lineto
30613.8 31361.1 lineto
30613.8 31586.1 lineto
30557.5 31698.5 lineto
30501.3 31754.8 lineto
30388.8 31811 lineto
stroke
newpath
31344.9 32317.2 moveto
31457.4 32317.2 lineto
31569.9 32261 lineto
31626.1 32204.7 lineto
31682.4 32092.2 lineto
31738.6 31867.3 lineto
31738.6 31586.1 lineto
31682.4 31361.1 lineto
31626.1 31248.6 lineto
31569.9 31192.4 lineto
31457.4 31136.1 lineto
31344.9 31136.1 lineto
31232.4 31192.4 lineto
31176.2 31248.6 lineto
31120 31361.1 lineto
31063.7 31586.1 lineto
31063.7 31867.3 lineto
31120 32092.2 lineto
31176.2 32204.7 lineto
31232.4 32261 lineto
31344.9 32317.2 lineto
stroke
newpath
32244.8 31136.1 moveto
32244.8 31923.5 lineto
stroke
newpath
32244.8 31811 moveto
32301.1 31867.3 lineto
32413.5 31923.5 lineto
32582.3 31923.5 lineto
32694.8 31867.3 lineto
32751 31754.8 lineto
32751 31136.1 lineto
stroke
newpath
32751 31754.8 moveto
32807.2 31867.3 lineto
32919.7 31923.5 lineto
33088.5 31923.5 lineto
33200.9 31867.3 lineto
33257.2 31754.8 lineto
33257.2 31136.1 lineto
stroke
newpath
33819.6 31136.1 moveto
33819.6 31923.5 lineto
stroke
newpath
33819.6 31811 moveto
33875.9 31867.3 lineto
33988.4 31923.5 lineto
34157.1 31923.5 lineto
34269.6 31867.3 lineto
34325.8 31754.8 lineto
34325.8 31136.1 lineto
stroke
newpath
34325.8 31754.8 moveto
34382.1 31867.3 lineto
34494.5 31923.5 lineto
34663.3 31923.5 lineto
34775.8 31867.3 lineto
34832 31754.8 lineto
34832 31136.1 lineto
stroke
newpath
37138 32373.5 moveto
36125.6 30854.9 lineto
stroke
newpath
38656.5 32317.2 moveto
38769 32317.2 lineto
38881.5 32261 lineto
38937.7 32204.7 lineto
38994 32092.2 lineto
39050.2 31867.3 lineto
39050.2 31586.1 lineto
38994 31361.1 lineto
38937.7 31248.6 lineto
38881.5 31192.4 lineto
38769 31136.1 lineto
38656.5 31136.1 lineto
38544 31192.4 lineto
38487.8 31248.6 lineto
38431.5 31361.1 lineto
38375.3 31586.1 lineto
38375.3 31867.3 lineto
38431.5 32092.2 lineto
38487.8 32204.7 lineto
38544 32261 lineto
38656.5 32317.2 lineto
stroke
newpath
39556.4 31248.6 moveto
39612.6 31192.4 lineto
39556.4 31136.1 lineto
39500.2 31192.4 lineto
39556.4 31248.6 lineto
39556.4 31136.1 lineto
stroke
newpath
40343.8 32317.2 moveto
40456.3 32317.2 lineto
40568.8 32261 lineto
40625 32204.7 lineto
40681.3 32092.2 lineto
40737.5 31867.3 lineto
40737.5 31586.1 lineto
40681.3 31361.1 lineto
40625 31248.6 lineto
40568.8 31192.4 lineto
40456.3 31136.1 lineto
40343.8 31136.1 lineto
40231.3 31192.4 lineto
40175.1 31248.6 lineto
40118.8 31361.1 lineto
40062.6 31586.1 lineto
40062.6 31867.3 lineto
40118.8 32092.2 lineto
40175.1 32204.7 lineto
40231.3 32261 lineto
40343.8 32317.2 lineto
stroke
newpath
41131.2 32317.2 moveto
41862.4 32317.2 lineto
41468.7 31867.3 lineto
41637.4 31867.3 lineto
41749.9 31811 lineto
41806.1 31754.8 lineto
41862.4 31642.3 lineto
41862.4 31361.1 lineto
41806.1 31248.6 lineto
41749.9 31192.4 lineto
41637.4 31136.1 lineto
41299.9 31136.1 lineto
41187.5 31192.4 lineto
41131.2 31248.6 lineto
stroke
newpath
42987.2 31136.1 moveto
42312.3 31136.1 lineto
stroke
newpath
42649.8 31136.1 moveto
42649.8 32317.2 lineto
42537.3 32148.5 lineto
42424.8 32036 lineto
42312.3 31979.8 lineto
stroke
newpath
43437.2 32317.2 moveto
43437.2 32092.2 lineto
stroke
newpath
43887.1 32317.2 moveto
43887.1 32092.2 lineto
stroke
newpath
45630.6 30686.2 moveto
45574.4 30742.4 lineto
45461.9 30911.1 lineto
45405.7 31023.6 lineto
45349.4 31192.4 lineto
45293.2 31473.6 lineto
45293.2 31698.5 lineto
45349.4 31979.8 lineto
45405.7 32148.5 lineto
45461.9 32261 lineto
45574.4 32429.7 lineto
45630.6 32485.9 lineto
stroke
newpath
46699.3 31136.1 moveto
46024.3 31136.1 lineto
stroke
newpath
46361.8 31136.1 moveto
46361.8 32317.2 lineto
46249.3 32148.5 lineto
46136.8 32036 lineto
46024.3 31979.8 lineto
stroke
newpath
47430.4 32317.2 moveto
47542.9 32317.2 lineto
47655.4 32261 lineto
47711.6 32204.7 lineto
47767.9 32092.2 lineto
47824.1 31867.3 lineto
47824.1 31586.1 lineto
47767.9 31361.1 lineto
47711.6 31248.6 lineto
47655.4 31192.4 lineto
47542.9 31136.1 lineto
47430.4 31136.1 lineto
47317.9 31192.4 lineto
47261.7 31248.6 lineto
47205.5 31361.1 lineto
47149.2 31586.1 lineto
47149.2 31867.3 lineto
47205.5 32092.2 lineto
47261.7 32204.7 lineto
47317.9 32261 lineto
47430.4 32317.2 lineto
stroke
newpath
48499 31811 moveto
48386.6 31867.3 lineto
48330.3 31923.5 lineto
48274.1 32036 lineto
48274.1 32092.2 lineto
48330.3 32204.7 lineto
48386.6 32261 lineto
48499 32317.2 lineto
48724 32317.2 lineto
48836.5 32261 lineto
48892.7 32204.7 lineto
48949 32092.2 lineto
48949 32036 lineto
48892.7 31923.5 lineto
48836.5 31867.3 lineto
48724 31811 lineto
48499 31811 lineto
48386.6 31754.8 lineto
48330.3 31698.5 lineto
48274.1 31586.1 lineto
48274.1 31361.1 lineto
48330.3 31248.6 lineto
48386.6 31192.4 lineto
48499 31136.1 lineto
48724 31136.1 lineto
48836.5 31192.4 lineto
48892.7 31248.6 lineto
48949 31361.1 lineto
48949 31586.1 lineto
48892.7 31698.5 lineto
48836.5 31754.8 lineto
48724 31811 lineto
stroke
newpath
50355.1 31136.1 moveto
50355.1 32317.2 lineto
stroke
newpath
50861.2 31136.1 moveto
50861.2 31754.8 lineto
50805 31867.3 lineto
50692.5 31923.5 lineto
50523.8 31923.5 lineto
50411.3 31867.3 lineto
50355.1 31811 lineto
stroke
newpath
51592.4 31136.1 moveto
51479.9 31192.4 lineto
51423.7 31248.6 lineto
51367.4 31361.1 lineto
51367.4 31698.5 lineto
51423.7 31811 lineto
51479.9 31867.3 lineto
51592.4 31923.5 lineto
51761.1 31923.5 lineto
51873.6 31867.3 lineto
51929.9 31811 lineto
51986.1 31698.5 lineto
51986.1 31361.1 lineto
51929.9 31248.6 lineto
51873.6 31192.4 lineto
51761.1 31136.1 lineto
51592.4 31136.1 lineto
stroke
newpath
52661 31136.1 moveto
52548.5 31192.4 lineto
52492.3 31304.8 lineto
52492.3 32317.2 lineto
stroke
newpath
53560.9 31192.4 moveto
53448.4 31136.1 lineto
53223.4 31136.1 lineto
53111 31192.4 lineto
53054.7 31304.8 lineto
53054.7 31754.8 lineto
53111 31867.3 lineto
53223.4 31923.5 lineto
53448.4 31923.5 lineto
53560.9 31867.3 lineto
53617.2 31754.8 lineto
53617.2 31642.3 lineto
53054.7 31529.8 lineto
stroke
newpath
54067.1 31192.4 moveto
54179.6 31136.1 lineto
54404.6 31136.1 lineto
54517 31192.4 lineto
54573.3 31304.8 lineto
54573.3 31361.1 lineto
54517 31473.6 lineto
54404.6 31529.8 lineto
54235.8 31529.8 lineto
54123.3 31586.1 lineto
54067.1 31698.5 lineto
54067.1 31754.8 lineto
54123.3 31867.3 lineto
54235.8 31923.5 lineto
54404.6 31923.5 lineto
54517 31867.3 lineto
stroke
newpath
54967 30686.2 moveto
55023.2 30742.4 lineto
55135.7 30911.1 lineto
55192 31023.6 lineto
55248.2 31192.4 lineto
55304.4 31473.6 lineto
55304.4 31698.5 lineto
55248.2 31979.8 lineto
55192 32148.5 lineto
55135.7 32261 lineto
55023.2 32429.7 lineto
54967 32485.9 lineto
stroke
newpath
26971.8 30319.7 moveto
26971.8 29903 lineto
stroke
newpath
26763.4 30111.4 moveto
27180.1 30111.4 lineto
stroke
0 0 0 setrgbcolor
0 0 0 setrgbcolor
newpath
28926.5 29577.1 moveto
28251.6 29577.1 lineto
stroke
newpath
28589 29577.1 moveto
28589 30758.2 lineto
28476.5 30589.4 lineto
28364.1 30476.9 lineto
28251.6 30420.7 lineto
stroke
newpath
29432.7 29689.5 moveto
29488.9 29633.3 lineto
29432.7 29577.1 lineto
29376.4 29633.3 lineto
29432.7 29689.5 lineto
29432.7 29577.1 lineto
stroke
newpath
30220.1 30758.2 moveto
30332.6 30758.2 lineto
30445 30701.9 lineto
30501.3 30645.7 lineto
30557.5 30533.2 lineto
30613.8 30308.2 lineto
30613.8 30027 lineto
30557.5 29802 lineto
30501.3 29689.5 lineto
30445 29633.3 lineto
30332.6 29577.1 lineto
30220.1 29577.1 lineto
30107.6 29633.3 lineto
30051.3 29689.5 lineto
29995.1 29802 lineto
29938.9 30027 lineto
29938.9 30308.2 lineto
29995.1 30533.2 lineto
30051.3 30645.7 lineto
30107.6 30701.9 lineto
30220.1 30758.2 lineto
stroke
newpath
31344.9 30758.2 moveto
31457.4 30758.2 lineto
31569.9 30701.9 lineto
31626.1 30645.7 lineto
31682.4 30533.2 lineto
31738.6 30308.2 lineto
31738.6 30027 lineto
31682.4 29802 lineto
31626.1 29689.5 lineto
31569.9 29633.3 lineto
31457.4 29577.1 lineto
31344.9 29577.1 lineto
31232.4 29633.3 lineto
31176.2 29689.5 lineto
31120 29802 lineto
31063.7 30027 lineto
31063.7 30308.2 lineto
31120 30533.2 lineto
31176.2 30645.7 lineto
31232.4 30701.9 lineto
31344.9 30758.2 lineto
stroke
newpath
32244.8 29577.1 moveto
32244.8 30364.5 lineto
stroke
newpath
32244.8 30252 moveto
32301.1 30308.2 lineto
32413.5 30364.5 lineto
32582.3 30364.5 lineto
32694.8 30308.2 lineto
32751 30195.7 lineto
32751 29577.1 lineto
stroke
newpath
32751 30195.7 moveto
32807.2 30308.2 lineto
32919.7 30364.5 lineto
33088.5 30364.5 lineto
33200.9 30308.2 lineto
33257.2 30195.7 lineto
33257.2 29577.1 lineto
stroke
newpath
33819.6 29577.1 moveto
33819.6 30364.5 lineto
stroke
newpath
33819.6 30252 moveto
33875.9 30308.2 lineto
33988.4 30364.5 lineto
34157.1 30364.5 lineto
34269.6 30308.2 lineto
34325.8 30195.7 lineto
34325.8 29577.1 lineto
stroke
newpath
34325.8 30195.7 moveto
34382.1 30308.2 lineto
34494.5 30364.5 lineto
34663.3 30364.5 lineto
34775.8 30308.2 lineto
34832 30195.7 lineto
34832 29577.1 lineto
stroke
newpath
37138 30814.4 moveto
36125.6 29295.8 lineto
stroke
newpath
38656.5 30758.2 moveto
38769 30758.2 lineto
38881.5 30701.9 lineto
38937.7 30645.7 lineto
38994 30533.2 lineto
39050.2 30308.2 lineto
39050.2 30027 lineto
38994 29802 lineto
38937.7 29689.5 lineto
38881.5 29633.3 lineto
38769 29577.1 lineto
38656.5 29577.1 lineto
38544 29633.3 lineto
38487.8 29689.5 lineto
38431.5 29802 lineto
38375.3 30027 lineto
38375.3 30308.2 lineto
38431.5 30533.2 lineto
38487.8 30645.7 lineto
38544 30701.9 lineto
38656.5 30758.2 lineto
stroke
newpath
39556.4 29689.5 moveto
39612.6 29633.3 lineto
39556.4 29577.1 lineto
39500.2 29633.3 lineto
39556.4 29689.5 lineto
39556.4 29577.1 lineto
stroke
newpath
40343.8 30758.2 moveto
40456.3 30758.2 lineto
40568.8 30701.9 lineto
40625 30645.7 lineto
40681.3 30533.2 lineto
40737.5 30308.2 lineto
40737.5 30027 lineto
40681.3 29802 lineto
40625 29689.5 lineto
40568.8 29633.3 lineto
40456.3 29577.1 lineto
40343.8 29577.1 lineto
40231.3 29633.3 lineto
40175.1 29689.5 lineto
40118.8 29802 lineto
40062.6 30027 lineto
40062.6 30308.2 lineto
40118.8 30533.2 lineto
40175.1 30645.7 lineto
40231.3 30701.9 lineto
40343.8 30758.2 lineto
stroke
newpath
41131.2 30758.2 moveto
41862.4 30758.2 lineto
41468.7 30308.2 lineto
41637.4 30308.2 lineto
41749.9 30252 lineto
41806.1 30195.7 lineto
41862.4 30083.2 lineto
41862.4 29802 lineto
41806.1 29689.5 lineto
41749.9 29633.3 lineto
41637.4 29577.1 lineto
41299.9 29577.1 lineto
41187.5 29633.3 lineto
41131.2 29689.5 lineto
stroke
newpath
42424.8 29577.1 moveto
42649.8 29577.1 lineto
42762.3 29633.3 lineto
42818.5 29689.5 lineto
42931 29858.3 lineto
42987.2 30083.2 lineto
42987.2 30533.2 lineto
42931 30645.7 lineto
42874.7 30701.9 lineto
42762.3 30758.2 lineto
42537.3 30758.2 lineto
42424.8 30701.9 lineto
42368.6 30645.7 lineto
42312.3 30533.2 lineto
42312.3 30252 lineto
42368.6 30139.5 lineto
42424.8 30083.2 lineto
42537.3 30027 lineto
42762.3 30027 lineto
42874.7 30083.2 lineto
42931 30139.5 lineto
42987.2 30252 lineto
stroke
newpath
43437.2 30758.2 moveto
43437.2 30533.2 lineto
stroke
newpath
43887.1 30758.2 moveto
43887.1 30533.2 lineto
stroke
newpath
45630.6 29127.1 moveto
45574.4 29183.4 lineto
45461.9 29352.1 lineto
45405.7 29464.6 lineto
45349.4 29633.3 lineto
45293.2 29914.5 lineto
45293.2 30139.5 lineto
45349.4 30420.7 lineto
45405.7 30589.4 lineto
45461.9 30701.9 lineto
45574.4 30870.6 lineto
45630.6 30926.9 lineto
stroke
newpath
45968.1 30758.2 moveto
46699.3 30758.2 lineto
46305.6 30308.2 lineto
46474.3 30308.2 lineto
46586.8 30252 lineto
46643 30195.7 lineto
46699.3 30083.2 lineto
46699.3 29802 lineto
46643 29689.5 lineto
46586.8 29633.3 lineto
46474.3 29577.1 lineto
46136.8 29577.1 lineto
46024.3 29633.3 lineto
45968.1 29689.5 lineto
stroke
newpath
47374.2 30252 moveto
47261.7 30308.2 lineto
47205.5 30364.5 lineto
47149.2 30476.9 lineto
47149.2 30533.2 lineto
47205.5 30645.7 lineto
47261.7 30701.9 lineto
47374.2 30758.2 lineto
47599.2 30758.2 lineto
47711.6 30701.9 lineto
47767.9 30645.7 lineto
47824.1 30533.2 lineto
47824.1 30476.9 lineto
47767.9 30364.5 lineto
47711.6 30308.2 lineto
47599.2 30252 lineto
47374.2 30252 lineto
47261.7 30195.7 lineto
47205.5 30139.5 lineto
47149.2 30027 lineto
47149.2 29802 lineto
47205.5 29689.5 lineto
47261.7 29633.3 lineto
47374.2 29577.1 lineto
47599.2 29577.1 lineto
47711.6 29633.3 lineto
47767.9 29689.5 lineto
47824.1 29802 lineto
47824.1 30027 lineto
47767.9 30139.5 lineto
47711.6 30195.7 lineto
47599.2 30252 lineto
stroke
newpath
49230.2 29577.1 moveto
49230.2 30758.2 lineto
stroke
newpath
49736.4 29577.1 moveto
49736.4 30195.7 lineto
49680.1 30308.2 lineto
49567.7 30364.5 lineto
49398.9 30364.5 lineto
49286.4 30308.2 lineto
49230.2 30252 lineto
stroke
newpath
50467.5 29577.1 moveto
50355.1 29633.3 lineto
50298.8 29689.5 lineto
50242.6 29802 lineto
50242.6 30139.5 lineto
50298.8 30252 lineto
50355.1 30308.2 lineto
50467.5 30364.5 lineto
50636.3 30364.5 lineto
50748.8 30308.2 lineto
50805 30252 lineto
50861.2 30139.5 lineto
50861.2 29802 lineto
50805 29689.5 lineto
50748.8 29633.3 lineto
50636.3 29577.1 lineto
50467.5 29577.1 lineto
stroke
newpath
51536.2 29577.1 moveto
51423.7 29633.3 lineto
51367.4 29745.8 lineto
51367.4 30758.2 lineto
stroke
newpath
52436 29633.3 moveto
52323.6 29577.1 lineto
52098.6 29577.1 lineto
51986.1 29633.3 lineto
51929.9 29745.8 lineto
51929.9 30195.7 lineto
51986.1 30308.2 lineto
52098.6 30364.5 lineto
52323.6 30364.5 lineto
52436 30308.2 lineto
52492.3 30195.7 lineto
52492.3 30083.2 lineto
51929.9 29970.8 lineto
stroke
newpath
52942.2 29633.3 moveto
53054.7 29577.1 lineto
53279.7 29577.1 lineto
53392.2 29633.3 lineto
53448.4 29745.8 lineto
53448.4 29802 lineto
53392.2 29914.5 lineto
53279.7 29970.8 lineto
53111 29970.8 lineto
52998.5 30027 lineto
52942.2 30139.5 lineto
52942.2 30195.7 lineto
52998.5 30308.2 lineto
53111 30364.5 lineto
53279.7 30364.5 lineto
53392.2 30308.2 lineto
stroke
newpath
53842.1 29127.1 moveto
53898.4 29183.4 lineto
54010.9 29352.1 lineto
54067.1 29464.6 lineto
54123.3 29633.3 lineto
54179.6 29914.5 lineto
54179.6 30139.5 lineto
54123.3 30420.7 lineto
54067.1 30589.4 lineto
54010.9 30701.9 lineto
53898.4 30870.6 lineto
53842.1 30926.9 lineto
stroke
newpath
27116.7 28399.1 moveto
27116.7 28705.5 lineto
26810.2 28705.5 lineto
26810.2 28399.1 lineto
27116.7 28399.1 lineto
poly0
0 0 0 setrgbcolor
0 0 0 setrgbcolor
newpath
28926.5 28018 moveto
28251.6 28018 lineto
stroke
newpath
28589 28018 moveto
28589 29199.1 lineto
28476.5 29030.4 lineto
28364.1 28917.9 lineto
28251.6 28861.7 lineto
stroke
newpath
29432.7 28130.5 moveto
29488.9 28074.2 lineto
29432.7 28018 lineto
29376.4 28074.2 lineto
29432.7 28130.5 lineto
29432.7 28018 lineto
stroke
newpath
30220.1 29199.1 moveto
30332.6 29199.1 lineto
30445 29142.9 lineto
30501.3 29086.6 lineto
30557.5 28974.1 lineto
30613.8 28749.2 lineto
30613.8 28467.9 lineto
30557.5 28243 lineto
30501.3 28130.5 lineto
30445 28074.2 lineto
30332.6 28018 lineto
30220.1 28018 lineto
30107.6 28074.2 lineto
30051.3 28130.5 lineto
29995.1 28243 lineto
29938.9 28467.9 lineto
29938.9 28749.2 lineto
29995.1 28974.1 lineto
30051.3 29086.6 lineto
30107.6 29142.9 lineto
30220.1 29199.1 lineto
stroke
newpath
31626.1 28805.4 moveto
31626.1 28018 lineto
stroke
newpath
31344.9 29255.4 moveto
31063.7 28411.7 lineto
31794.9 28411.7 lineto
stroke
newpath
32244.8 28018 moveto
32244.8 28805.4 lineto
stroke
newpath
32244.8 28692.9 moveto
32301.1 28749.2 lineto
32413.5 28805.4 lineto
32582.3 28805.4 lineto
32694.8 28749.2 lineto
32751 28636.7 lineto
32751 28018 lineto
stroke
newpath
32751 28636.7 moveto
32807.2 28749.2 lineto
32919.7 28805.4 lineto
33088.5 28805.4 lineto
33200.9 28749.2 lineto
33257.2 28636.7 lineto
33257.2 28018 lineto
stroke
newpath
33819.6 28018 moveto
33819.6 28805.4 lineto
stroke
newpath
33819.6 28692.9 moveto
33875.9 28749.2 lineto
33988.4 28805.4 lineto
34157.1 28805.4 lineto
34269.6 28749.2 lineto
34325.8 28636.7 lineto
34325.8 28018 lineto
stroke
newpath
34325.8 28636.7 moveto
34382.1 28749.2 lineto
34494.5 28805.4 lineto
34663.3 28805.4 lineto
34775.8 28749.2 lineto
34832 28636.7 lineto
34832 28018 lineto
stroke
newpath
37138 29255.4 moveto
36125.6 27736.8 lineto
stroke
newpath
38656.5 29199.1 moveto
38769 29199.1 lineto
38881.5 29142.9 lineto
38937.7 29086.6 lineto
38994 28974.1 lineto
39050.2 28749.2 lineto
39050.2 28467.9 lineto
38994 28243 lineto
38937.7 28130.5 lineto
38881.5 28074.2 lineto
38769 28018 lineto
38656.5 28018 lineto
38544 28074.2 lineto
38487.8 28130.5 lineto
38431.5 28243 lineto
38375.3 28467.9 lineto
38375.3 28749.2 lineto
38431.5 28974.1 lineto
38487.8 29086.6 lineto
38544 29142.9 lineto
38656.5 29199.1 lineto
stroke
newpath
39556.4 28130.5 moveto
39612.6 28074.2 lineto
39556.4 28018 lineto
39500.2 28074.2 lineto
39556.4 28130.5 lineto
39556.4 28018 lineto
stroke
newpath
40343.8 29199.1 moveto
40456.3 29199.1 lineto
40568.8 29142.9 lineto
40625 29086.6 lineto
40681.3 28974.1 lineto
40737.5 28749.2 lineto
40737.5 28467.9 lineto
40681.3 28243 lineto
40625 28130.5 lineto
40568.8 28074.2 lineto
40456.3 28018 lineto
40343.8 28018 lineto
40231.3 28074.2 lineto
40175.1 28130.5 lineto
40118.8 28243 lineto
40062.6 28467.9 lineto
40062.6 28749.2 lineto
40118.8 28974.1 lineto
40175.1 29086.6 lineto
40231.3 29142.9 lineto
40343.8 29199.1 lineto
stroke
newpath
41749.9 28805.4 moveto
41749.9 28018 lineto
stroke
newpath
41468.7 29255.4 moveto
41187.5 28411.7 lineto
41918.6 28411.7 lineto
stroke
newpath
42987.2 28018 moveto
42312.3 28018 lineto
stroke
newpath
42649.8 28018 moveto
42649.8 29199.1 lineto
42537.3 29030.4 lineto
42424.8 28917.9 lineto
42312.3 28861.7 lineto
stroke
newpath
43437.2 29199.1 moveto
43437.2 28974.1 lineto
stroke
newpath
43887.1 29199.1 moveto
43887.1 28974.1 lineto
stroke
newpath
45630.6 27568.1 moveto
45574.4 27624.3 lineto
45461.9 27793 lineto
45405.7 27905.5 lineto
45349.4 28074.2 lineto
45293.2 28355.5 lineto
45293.2 28580.4 lineto
45349.4 28861.7 lineto
45405.7 29030.4 lineto
45461.9 29142.9 lineto
45574.4 29311.6 lineto
45630.6 29367.8 lineto
stroke
newpath
45968.1 29199.1 moveto
46699.3 29199.1 lineto
46305.6 28749.2 lineto
46474.3 28749.2 lineto
46586.8 28692.9 lineto
46643 28636.7 lineto
46699.3 28524.2 lineto
46699.3 28243 lineto
46643 28130.5 lineto
46586.8 28074.2 lineto
46474.3 28018 lineto
46136.8 28018 lineto
46024.3 28074.2 lineto
45968.1 28130.5 lineto
stroke
newpath
47374.2 28692.9 moveto
47261.7 28749.2 lineto
47205.5 28805.4 lineto
47149.2 28917.9 lineto
47149.2 28974.1 lineto
47205.5 29086.6 lineto
47261.7 29142.9 lineto
47374.2 29199.1 lineto
47599.2 29199.1 lineto
47711.6 29142.9 lineto
47767.9 29086.6 lineto
47824.1 28974.1 lineto
47824.1 28917.9 lineto
47767.9 28805.4 lineto
47711.6 28749.2 lineto
47599.2 28692.9 lineto
47374.2 28692.9 lineto
47261.7 28636.7 lineto
47205.5 28580.4 lineto
47149.2 28467.9 lineto
47149.2 28243 lineto
47205.5 28130.5 lineto
47261.7 28074.2 lineto
47374.2 28018 lineto
47599.2 28018 lineto
47711.6 28074.2 lineto
47767.9 28130.5 lineto
47824.1 28243 lineto
47824.1 28467.9 lineto
47767.9 28580.4 lineto
47711.6 28636.7 lineto
47599.2 28692.9 lineto
stroke
newpath
49230.2 28018 moveto
49230.2 29199.1 lineto
stroke
newpath
49736.4 28018 moveto
49736.4 28636.7 lineto
49680.1 28749.2 lineto
49567.7 28805.4 lineto
49398.9 28805.4 lineto
49286.4 28749.2 lineto
49230.2 28692.9 lineto
stroke
newpath
50467.5 28018 moveto
50355.1 28074.2 lineto
50298.8 28130.5 lineto
50242.6 28243 lineto
50242.6 28580.4 lineto
50298.8 28692.9 lineto
50355.1 28749.2 lineto
50467.5 28805.4 lineto
50636.3 28805.4 lineto
50748.8 28749.2 lineto
50805 28692.9 lineto
50861.2 28580.4 lineto
50861.2 28243 lineto
50805 28130.5 lineto
50748.8 28074.2 lineto
50636.3 28018 lineto
50467.5 28018 lineto
stroke
newpath
51536.2 28018 moveto
51423.7 28074.2 lineto
51367.4 28186.7 lineto
51367.4 29199.1 lineto
stroke
newpath
52436 28074.2 moveto
52323.6 28018 lineto
52098.6 28018 lineto
51986.1 28074.2 lineto
51929.9 28186.7 lineto
51929.9 28636.7 lineto
51986.1 28749.2 lineto
52098.6 28805.4 lineto
52323.6 28805.4 lineto
52436 28749.2 lineto
52492.3 28636.7 lineto
52492.3 28524.2 lineto
51929.9 28411.7 lineto
stroke
newpath
52942.2 28074.2 moveto
53054.7 28018 lineto
53279.7 28018 lineto
53392.2 28074.2 lineto
53448.4 28186.7 lineto
53448.4 28243 lineto
53392.2 28355.5 lineto
53279.7 28411.7 lineto
53111 28411.7 lineto
52998.5 28467.9 lineto
52942.2 28580.4 lineto
52942.2 28636.7 lineto
52998.5 28749.2 lineto
53111 28805.4 lineto
53279.7 28805.4 lineto
53392.2 28749.2 lineto
stroke
newpath
53842.1 27568.1 moveto
53898.4 27624.3 lineto
54010.9 27793 lineto
54067.1 27905.5 lineto
54123.3 28074.2 lineto
54179.6 28355.5 lineto
54179.6 28580.4 lineto
54123.3 28861.7 lineto
54067.1 29030.4 lineto
54010.9 29142.9 lineto
53898.4 29311.6 lineto
53842.1 29367.8 lineto
stroke
showpage
grestore
%%EOF
