M48
; DRILL file {KiCad 5.1.4-e60b266~84~ubuntu19.04.1} date Fri 13 Sep 2019 14:51:08 BST
; FORMAT={-:-/ absolute / inch / decimal}
; #@! TF.CreationDate,2019-09-13T14:51:08+01:00
; #@! TF.GenerationSoftware,Kicad,Pcbnew,5.1.4-e60b266~84~ubuntu19.04.1
; #@! TF.FileFunction,Plated,1,2,PTH
FMAT,2
INCH
T1C0.0276
T2C0.0315
T3C0.0394
T4C0.0409
%
G90
G05
T1
X5.55Y-4.4
X1.45Y-6.3
X1.45Y-6.6
X5.55Y-4.2
X5.65Y-4.2
X5.65Y-4.4
X4.45Y-4.7
X4.45Y-4.8
X4.45Y-4.9
X4.45Y-5.0
X5.55Y-4.3
X5.65Y-4.3
T2
X1.15Y-4.4
X1.15Y-4.5
X1.15Y-4.6
X1.15Y-4.7
X1.15Y-4.8
X1.15Y-4.9
X1.15Y-5.0
X1.15Y-5.1
X1.15Y-5.2
X1.15Y-5.3
X1.15Y-5.4
X1.15Y-5.5
X1.15Y-5.6
X1.15Y-5.7
X1.15Y-5.8
X1.75Y-4.4
X1.75Y-4.5
X1.75Y-4.6
X1.75Y-4.7
X1.75Y-4.8
X1.75Y-4.9
X1.75Y-5.0
X1.75Y-5.1
X1.75Y-5.2
X1.75Y-5.3
X1.75Y-5.4
X1.75Y-5.5
X1.75Y-5.6
X1.75Y-5.7
X1.75Y-5.8
X5.85Y-4.2
X5.85Y-4.3
X5.85Y-4.4
X5.85Y-4.5
X5.85Y-4.6
X5.85Y-4.7
X5.85Y-4.8
X5.85Y-4.9
X5.85Y-5.0
X5.85Y-5.1
X5.85Y-5.2
X5.85Y-5.3
X5.85Y-5.4
X5.85Y-5.5
X6.15Y-4.2
X6.15Y-4.3
X6.15Y-4.4
X6.15Y-4.5
X6.15Y-4.6
X6.15Y-4.7
X6.15Y-4.8
X6.15Y-4.9
X6.15Y-5.0
X6.15Y-5.1
X6.15Y-5.2
X6.15Y-5.3
X6.15Y-5.4
X6.15Y-5.5
X2.05Y-4.0
X2.05Y-4.1
X2.05Y-4.2
X2.05Y-4.3
X2.05Y-4.4
X2.05Y-4.5
X2.05Y-4.6
X2.05Y-4.7
X2.05Y-4.8
X2.05Y-4.9
X2.05Y-5.0
X2.05Y-5.1
X2.05Y-5.2
X2.05Y-5.3
X2.05Y-5.4
X2.05Y-5.5
X2.05Y-5.6
X2.05Y-5.7
X2.05Y-5.8
X2.05Y-5.9
X2.65Y-4.0
X2.65Y-4.1
X2.65Y-4.2
X2.65Y-4.3
X2.65Y-4.4
X2.65Y-4.5
X2.65Y-4.6
X2.65Y-4.7
X2.65Y-4.8
X2.65Y-4.9
X2.65Y-5.0
X2.65Y-5.1
X2.65Y-5.2
X2.65Y-5.3
X2.65Y-5.4
X2.65Y-5.5
X2.65Y-5.6
X2.65Y-5.7
X2.65Y-5.8
X2.65Y-5.9
X5.05Y-5.8
X5.05Y-6.1
X5.15Y-5.8
X5.15Y-6.1
X5.25Y-5.8
X5.25Y-6.1
X5.35Y-5.8
X5.35Y-6.1
X5.45Y-5.8
X5.45Y-6.1
T3
X5.55Y-4.9
X6.35Y-4.2
X6.35Y-4.3
X6.35Y-4.4
X6.35Y-4.5
X5.35Y-4.2
X5.35Y-4.3
X5.35Y-4.4
X5.35Y-4.5
X2.85Y-5.0
X2.85Y-5.1
X2.85Y-5.2
X6.35Y-4.6
X6.35Y-4.7
X6.35Y-4.8
X6.35Y-4.9
X1.25Y-6.6
X1.25Y-6.7
X4.65Y-5.0
X4.65Y-5.1
X4.65Y-5.2
X4.65Y-5.3
X4.65Y-5.4
X4.65Y-5.5
X4.65Y-5.6
X4.65Y-5.7
X5.05Y-6.3
X5.15Y-6.3
X5.25Y-6.3
X5.35Y-6.3
X2.85Y-5.6
X2.85Y-5.7
X2.85Y-5.8
X1.25Y-6.3
X1.25Y-6.4
X2.85Y-4.7
X2.85Y-4.8
X2.85Y-4.9
T4
X3.15Y-4.5
X3.15Y-4.6
X3.15Y-4.7
X3.15Y-4.8
X3.15Y-4.9
X3.15Y-5.0
X3.15Y-5.1
X3.15Y-5.2
X3.15Y-5.3
X3.15Y-5.4
X3.15Y-5.5
X3.15Y-5.6
X3.15Y-5.7
X3.15Y-5.8
X3.15Y-5.9
X3.15Y-6.0
X3.15Y-6.1
X3.15Y-6.2
X3.15Y-6.3
X4.15Y-4.5
X4.15Y-4.6
X4.15Y-4.7
X4.15Y-4.8
X4.15Y-4.9
X4.15Y-5.0
X4.15Y-5.1
X4.15Y-5.2
X4.15Y-5.3
X4.15Y-5.4
X4.15Y-5.5
X4.15Y-5.6
X4.15Y-5.7
X4.15Y-5.8
X4.15Y-5.9
X4.15Y-6.0
X4.15Y-6.1
X4.15Y-6.2
X4.15Y-6.3
T0
M30
